"","x"
"1","I currently have the IPhone 6plus and am considering getting new 6s plus. Will I have to go through the whole process of setting up cards and calling bank or will it automatically be on phone?"
"2","You would have to add the cards again. I never had to call the banks when I did this."
"3","Depends on the card how much info will be required and if you setup as new or restore from backup."
"4","holmesar said:↑I currently have the IPhone 6plus and am considering getting new 6s plus. Will I have to go through the whole process of setting up cards and calling bank or will it automatically be on phone?Click to expand...When I first set up Pay, I had to call my card issuer (American Express). I had to call again when I added the card to my Watch. However, after upgrading the phone, I had to re-add the card to both devices but didn't have to call them again. It may depend on the card issuer and how strict they are with the signup/enrollment process."
"5","dfausty said:↑When I first set up Pay, I had to call my card issuer (American Express). I had to call again when I added the card to my Watch. However, after upgrading the phone, I had to re-add the card to both devices but didn't have to call them again. It may depend on the card issuer and how strict they are with the signup/enrollment process.Click to expand..."
"6","I use a bank where verification requires a phone call unlike some banks that use a text message."
"7","EDIT: Wrong Thread"
"8","dfausty said:↑When I first set up Pay, I had to call my card issuer (American Express). I had to call again when I added the card to my Watch. However, after upgrading the phone, I had to re-add the card to both devices but didn't have to call them again. It may depend on the card issuer and how strict they are with the signup/enrollment process.Click to expand...Did you set up as new phone or restore from backup? I set my phone up as new and had re verify all my cards again. I am in the UK so that might make a difference ."
"9","Furzul said:↑Did you set up as new phone or restore from backup? I set my phone up as new and had re verify all my cards again. I am in the UK so that might make a difference.Click to expand...Doesn't matter, Pay is like finger print and must be setup again on any new iPhone."
"10","Julien said:↑Doesn't matter, Pay is like finger print and must be setup again on any new iPhone.Click to expand...I was thinking that it could be something do do with the device account number being reinstalled if you restore the phone from a backup."
"11","Furzul said:↑I was thinking that it could be something do do with the device account number being reinstalled if you restore the phone from a backup.Click to expand...It is hashed and stored in a chip. Also it is unique to the device. A new iPhone requires a different and new token number."
"12","Furzul said:↑Did you set up as new phone or restore from backup? I set my phone up as new and had re verify all my cards again. I am in the UK so that might make a difference.Click to expand...I was running iOS 9.1 b2, so I upgraded my 6S Plus to 9.1 b2, then restored from my encrypted iTunes backup. As I said, I did have to add the cards to Pay again, but I did not have to contact my card issuer and go through that verification process."
