,x
1,Can I use Apple Pay in the Czech Republic??                                                                                        3 hours ago
2,Apple pay                                                                                        9 hours ago
3,Apple Pay Unreliable                                                                                        13 hours ago
4,Apple Pay on Watch not working at Macy's                                                                                        16 hours ago
5,"I ordered an iPhone 6 64GB, problem with order details                                                                                        1 day ago"
6,did not get gems on clash of clans                                                                                        1 day ago
7,"When I pay with my watch I don't get a notification like I do with my phone, why is that?                                                                                        2 days ago"
8,When is ApplePay & Newstand launching in Australia?                                                                                        2 days ago
9,"Apple Pay Not Working ""Hold Near Reader to Pay""                                                                                        1 week ago"
10,When will apple pay support MST                                                                                        3 days ago
11,Apple pay                                                                                        3 days ago
12,Apple Pay Not Working                                                                                        3 days ago
13,Signal Financial??????                                                                                        4 days ago
14,How does Apple Pay procees a Debit Card?  Debit or Credit??                                                                                        4 days ago
15,Can I use  pay without Touch ID but phone passcode to authenticate transaction in stores? To                                                                                        4 days ago
16,Apple Pay                                                                                        4 days ago
17,Touch ID not working with Apple Pay.                                                                                        4 days ago
18,Payment limits (UK)                                                                                        5 days ago
19,Apple Pay UK Declined Transactions                                                                                        5 days ago
20,Can I use my iTunes balance for Apple Pay?                                                                                        5 days ago
21,How to reset or find out Pin when using Apple Pay                                                                                        6 days ago
22,does apple pay work in united arab emirates? when is it going to start?                                                                                        7 days ago
23,Hello                                                                                        7 days ago
24,Why will my apple pay will not work because of the chip?                                                                                        1 week ago
25,Can you split two payments at the apple store using apply pay?                                                                                        1 week ago
