,x,
1,I honestly expect this to have even less adoption than Google Wallet. ,8 months ago
2,I don't think anything will ever come close to apple pay.,8 months ago
3,LoopPay works with most existing readers that read magnetic stripe instead of using NFC. This is a big deal because a lot of merchants don't want to invest in an NFC equipment. This means LoopPay already has greater adoption than Apple Pay. LoopPay will be enabled on the S6 this summer.,8 months ago
4,"There are and will be alot more NFC enabled android devices than iphones (only the 6). So since Apple came up with it now, everybody wants to pay ""contactless"".",8 months ago
5,"Which still isn't well supported in the US, despite all the hype and claims it would (and the rest of the world has had contactless payments by phones and even contactless cards for years).",8 months ago
6,"NFC is suppprted in about 90% of terminals so thankfully we don't have to endure these pathetic anti consumer squabbles between google, apple and Samsung..",8 months ago
7,It's mainly between Apple and Samsung. I think I have seen more attacks from them than Google. Google just watches (or ignores),8 months ago
8,Google creates stuff and let others run off with it ex. Apple Pay ,8 months ago
9,"true, but lets wait for Google Pay...",8 months ago
10,90% of terminals where?? Please let me know,8 months ago
11,He might mean in Europe or certain parts of Asia. In the UK I'd say something like 60% are NFC enabled now but it depends where you are. Some places don't has as many whereas in others almost every shop you go into seems to have it. Even quite a few small shops support it.,8 months ago
12,"It's sad that we've had more modern pay terminals and thus the infrastructure here for this systems which would mean a far greater chance of success for Google Wallet and the like, but yet none of those services exist here. I have used my NFC enabled debit card for years and will often go months without typing my PIN at a shop.",8 months ago
13,"I feel if companies had prioritised Europe over the US they could have gotten their systems off to a much faster start in terms of adoption, which in turn might have helped them gain traction in the US once they had proven it was something people would use where the infrastructural exists.",8 months ago
14,UK. It's pretty much everywhere and all bank cards support tap and pay.,8 months ago
15,In Australia,8 months ago
16,Oh well I live in America where its maybe 10%,8 months ago
17,"NFC? more like 10%, and when it is available, I find that it is always disabled.",8 months ago
18,"Yea that guy is either very delusional or horrible at math, or both. ",8 months ago
19,All I want: Apple to have their Apple Pay. Google (Android) to have their Google Wallet. That's it. Maybe I should just give up hope and stick with the plastic card,8 months ago
20,The nice thing is you can use both - Google and Samsung Pay - on Android.,8 months ago
21,"If I am reading the above article correctly, Samsung Pay only works on their latest phones for now :(",8 months ago
22,I think it'll remain Samsung-exclusive. I kinda saw this coming when they originally bought Loop Pay in the first place.,8 months ago
23,"That sounds like an excellent way to burry Samsung pay. On the other hand if Samsung Pay is standarts compliant (PayPass, PayWave) then I also couldn't care less as the readers will work and the niche for a sotware wallet on android phones will quickly be filled, as it's too lucrative to pass on.",8 months ago
24,"There is always LoopPay in it's current form. It works now, but for how long is the question now that Sammy bought them.",8 months ago
25,"Yep, people shouldn't be allowed choice! Only 2 companies allowed.",8 months ago
26,"Well...choice is good for many things, but I don't see how it is for this. Softcard failed. CurrentC will, hopefully, fail. Samsung Pay is only for the latest two Samsung devices for now. Essentially, it's only Wallet and Apple Pay that most users can use. Oh, there's PayPal too",8 months ago
27,"Apple and Google Wallet should work fine with the same devices since both use NFC. Both companies should make it a unified standard ,a single app for it or what have you...then Samsung is fucked with that magnetic lolwut thingy",8 months ago
28,"I'm just worried oversaturation of the market (vis-a-vis mobile wallets) will ultimately confuse people so much that it will prevent it from really taking off. However, on the other hand, one can also argue that if more companies are innovating and being driven to do so by competition, perhaps it will create better technology in general much quicker that companies (especially Visa and MasterCard) but also retailers will be more happy to get onboard with.",8 months ago
29,"This will only work in primitive backwaters like the US where they still use magnetic stripe readers. In the civilized world, we've moved on to chip reading ages ago.",8 months ago
30,Good for you. You can have that. We'll laugh at the next 20 services that only launches in he US and your civilized people will bitch and moan for not having it. ,8 months ago
31,"Yap, US citizen, checks out.",8 months ago
32,Yap? Please define. ,8 months ago
33,Nop.,8 months ago
34,Nop. Another new word! My vocabulary has been greatly expanded today. My thanks. ,8 months ago
35,"Come to Portugal, we have a bunch of that 'vocabulary' you speak of, it's great (:",8 months ago
36,I would love to. I hear it is beautiful. ,8 months ago
37,"Hey, a foreigner fired the first shot, so don't be surprised when we U.S. citizens return verbal fire. ;-)",8 months ago
38,"Not surprised at all, it was asked for. While they discuss chips and mangnetic stripes, I'd still prefer getting the devices and the perks that are usually US-only, so you do have the upper hand, shots were fired to the sky (:",8 months ago
39,You mean 250 million of people will have this accessible and the rest of the population of planet earth won't? Omg we are doomed ! LoL Just because Apple is using NFC tech now makes NFC the prime choice for banks if you ask me. ,8 months ago
40,"""Just because Apple is using NFC"", yeah, I mean forget about PayPass (MC) and PayWave (Visa) came up with, two behemoths rolling out vendor equipment, cards, pushing for wireless close range payments, it has to Apple jumping on a train at the last minute that is going to be a game changer.",8 months ago
41,"Both MC and Visa have been ""implementing"" this for years with limited success. Check the accuracy of the merchants on their website. It is joke. While they are a player, they have been riding the bench for a while.",8 months ago
42,"At least they've got a working standartized solution and are pushing the working, existing solution to retail. Apple is sitting on the bench waiting for someone esle to do the heavy lifting in order to jump in at the last moment and tell everyone how they invented wireless payments.",8 months ago
43,Lol true but doesn't most chip readers allow swipes also? ,8 months ago
44,But they don't allow Magstripe for credit cards.,8 months ago
45,Only for direct debit cards.,8 months ago
46,"Unfortunate is the way the US works. Also, most of those chip & pin readers have NFC, don't they? Wouldn't that negate the need for the MST portion of this device internationally?",8 months ago
47,In the Samsung event it was mentioned that only 10% of all readers have NFC capabilities.,8 months ago
48,"""...only 10% of readers have NFC"" - in the US. In countries such as Australia, 90% of readers have NFC eg: Paypass (Mastercard) and Paywave (Visa). These are debit and credit cards.",8 months ago
49,Many countries in Europe are starting up with NFC. ,8 months ago
50,"Very advanced. Germany has around 1,5% NFC ready terminals (Girogo).",8 months ago
51,"Go australia :p still it will be forever before Google, Samsung or Apple decideds were a worthwhile market :(",8 months ago
52,They ommited a very important information though :) I have a feeling this service will die out in a couple of years...the way they presented it made me feel they aren't very optimistic,8 months ago
53,"Unfortunately, the majority of retailers here in the UK have chip and pin but no NFC.",8 months ago
54,"Actually the vast majority of chip and pin card readers in the UK are NFC capable. But the retailers have not chosen to switch the feature on for whatever reason. It should be simple to flip the switch if they decide to support NFC payments, without needing to buy new readers",8 months ago
55,"Not here, NCF reader are rare. swiping is no longer user. Some device just can't read magnetic tracks.",8 months ago
56,"The US payment network is highly complex considering how many debit networks we have. Even when the liability shifts later this year on most transactions, it'll be years before US has a significant percentage of transactions processed by EMV. Automated fuel dispenser shift won't happen for a couple more years as well. And EMV still doesn't since the problem of card-not-present transactions.",8 months ago
57,"Yep; the Mobil station I work at is getting new POS systems, but the outside credit terminals we have until 2017 to replace. Which seems slightly hilarious, because, what, people don't pay with the same card inside and out? Still means cards will need to do double duty for at least three more years until the strip is completely gotten rid of.",8 months ago
58,It's going to be much much longer than 3 years before the magnetic strip is removed. It serves as a backup in case of chip failure. Also these liability shift dates are not a requirement. Merchants do not have to accept chips. It just depends on how much liability they are willing to accept for fraudulent transactions they income chip cards.,8 months ago
59,"Seriously, I've never swiped a credit card in my life. Ok, I did it once. It was a thursday.",8 months ago
60,Cool story bro. ,8 months ago
61,"Michael Schaap, thank you so much for your comment.",8 months ago
62,I will never again feel bad when a product or service is released to the US first or the US only. We will keep our backwater products and services to ourselves and leave those is the civilized world to enjoy their pin and chips. ,8 months ago
63,How is chip reading any better than swiping a card?,8 months ago
64,Here's a simple answer: http://security.stackexchange.com/a/49236/69453,8 months ago
65,"In short, your account number is securely stored in a chip, and it can't be easily cloned.",8 months ago
66,"If we're being brutally honest, chips aren't really that much more secure than magstripes, they just raise the difficulty of stealing a card with the simplest of techniques. They won't protect against physical theft, but they make cloning much more costly and inefficient.",8 months ago
67,"Seriously?? I've only swiped in the 4 countries I've lived in (US, Turkey, India, and Lebanon). I don't think it's just the US...",8 months ago
68,Can confirm in US and India. And India has been moving fast towards chip and pin. And US has just begun to move to chip and signature as well. I got all but one of my US credit cards replaced with chip versions. But all of them comes with the strip as well.,8 months ago
69,"This MST stuff stands a chance of being truly disruptive, when you're already compatible with 90% of the terminals out there, you've leaped ahead of Apple Pay, Google Wallet, and PayPal.",8 months ago
70,Except that's not really the case as far as I know...,8 months ago
71,"Then you know nothing, MindFever. There is world beyond wherever you live and MST is actually useful in most parts of the world.",8 months ago
72,"MindFever Isabelle . if you think Maria `s comment is astonishing... last tuesday I bought a brand new Ford after making $8847 this-last/5 weeks and-over, $10 thousand this past-month . without a question it is the best-work I've had . I started this 9-months ago and pretty much straight away started earning at least $71... per/hr . read this post here,,",8 months ago
73,✒✒✒✒✒✒✒✒✒✒✒✒✒✒&nbsphttp://www.502-Perfect.com<---,8 months ago
74,"MST is useless in Europe, for example.",8 months ago
75,We switched to EMV cards a LONG time ago.,8 months ago
76,We're not going back to insecure Magstripe.,8 months ago
77,NFC is the future.,8 months ago
78,I think this is a direct attack at Apple and a big slap in the face to Google Wallet. ,8 months ago
79,"Should make it easier for thieves to use stolen numbers at POS than having to rewrite mag stripes on cards. Don't have to deal with the signature, either.",8 months ago
80,i like this feature but sadly its a bit dated for a lot of europe now.....most card readers are ONLY chip and pin without the magstrip. and thos older terminals that do have magstrips still are slowly being fazed out. nfc is on the increase but in the uk for example its far to slow to uptake...there are a few shops and uses of nfc and maybe by the time the s7 arrives samsung pay or many other phone payment options may have taken hold.....,8 months ago
81,"I don't remember seeing, here in UK, terminals without magstripe reader.. wherever I go they have both. Maybe you just don't notice them because they are better incorporated into terminals design?",8 months ago
82,"Grocery shop next door changed their reader, no magstripe reader. And i'm not sure if the magstrip reader on the devices that have it works.",8 months ago
83,"It doesn't, if your card has a chip, you have to use the chip.",8 months ago
84,"""...and it's actually a bit less involved than Google Wallet.""",8 months ago
85,Not sure why anyone would think it's less involved. I can confirm that if you have Google Wallet set up with one of your credit cards as a form of payment you can just unlock the phone and tap it to an NFC terminal for the payment to go through. Sure it's not a finger print reader to unlock the phone (unless you have an Android phone that supports the finger print reader for the lockscreen) but swiping your password and touching it to the reader isn't really an involved process.,8 months ago
86,Not to knock this tech though. I wish Google went the LoopPay route so we didn't need to depend on businesses investing in new terminals.,8 months ago
87,"Sounds like cool tech. Wonder why Google didn't pick it up. Is it because most terminals are getting upgraded with NFC this year anyway, specifically by Oct 2015? Just make sure the merchant is setup to support EMV and NFC.",8 months ago
88,"The roll-out is for the EMV chip, not for NFC. PoS terminals can have them all, but I imagine most will just be the mag stripe and EMV chip reader only. NFC has a painfully slow adoption rate..",8 months ago
89,"If I was a business and had to invest in a mandatory terminal upgrade, I would get the ones with NFC and be done. No way could NFC add that much premium to the terminal.",8 months ago
90,"Trust me, I would do the same. But look at Best Buy. They actually have NFC terminals, but they won't even process them, at all. I had one person get a little ugly with me over that for no real reason.",8 months ago
91,"Ugh... just what we need. Another ""standard"". Samsung needed to back Google Wallet but they'd rather have their own piece of the pie and ultimately they're going to ruin it for everyone.",8 months ago
92,But it's better than Google Wallet. Innovation is better than backing a substandard product.,8 months ago
93,Chip & Pin support?,8 months ago
94,"No, of course, how are you going to fit the phone in the chip reader?",8 months ago
95,"""Samsung makes it clear that personal account numbers are not stored on the device, but on Samsung's own servers.""",8 months ago
96,"That's not reassuring at all. I'd rather it's stored on my device, so I can just cancel my credit card as I would if my wallet got stolen, instead of being made available to all to hack from Samsung's crappy servers.",8 months ago
97,"I think this would be most beneficial for people in the developing nations cause world does exist beyond US and EUR, (Unlike what most commenters here think). In most Asian countries, like India for instance, NFC payments are almost non existent. I for one have never seen a NFC Payment mode anywhere in India. Chip based readers are abundant but for the most part, Mag Strip readers dominate the market and can be found almost everywhere! So in these markets, Samsung Pay would be most beneficial and probably gain momentum. ",8 months ago
98,"PS - These markets, like Asia, contribute the majority of market share for Samsung.",8 months ago
99,"Well Asia is pretty big actually, you mentioned India, i have seen lots of nfc terminals in Japan and South Korea (Samsung home turf), also in some places in china. ",8 months ago
100,"I was referring mostly to the emerging markets like India, SE Asia, Some African Countries, Central and South Americas as well.",8 months ago
101,Isn't this the same tech they use to hack card readers? Doesn't seem terribly secure.,8 months ago
102,"Huh, a Samsung feature I'd actually use",8 months ago
103,"Samsung estimates only 10% of credit card terminals support NFC, which has prevented it from readily catching on for Google Wallet, and more recently Apple Pay.",8 months ago
104,In SLC it's more like 50% but we were one of the business formerly known as Isis test markets.,8 months ago
105,"Samsung makes it clear that personal account numbers are not stored on the device, but on Samsung's own servers.",8 months ago
106,"Oh good. Because the number of times my stuff has been stolen from my phone: 0. Number of times my stuff has been stolen from businesses servers, at least 4.",8 months ago
