,x,
1,"Colored* status bar. Transparent and coloured are two different things - they are defined differently in the code, and they look and behave differently.",6 months ago
2,"Could someone explain this to me: ""when you had your Chrome tabs merged with Recents"". (Not being snarky or anything, i'm genuinely ignorant of this)",6 months ago
3,"With Lollipop, you can have in your recents apps either your chrome app or chrome's tabs. It's up to you (you can activate/deactivate it in chrome parameters",6 months ago
4,Ohhhhhhh. I didn't know that. Thanks for clearing it up :),6 months ago
5,Where in the parameters? I can't find them.,6 months ago
6,Menu > Settings > Merge tabs and apps,6 months ago
7,Weird. It's there on my phone (Z3c) but not on my tablet (Z2 tablet),6 months ago
8,But thanks anyway,6 months ago
9,"These Chrome version numbers are now going totally out of place ,,,, they should start other nomenclatures",6 months ago
10,I don't believe Chrome Beta is on staged rollouts as it's always available in the Play Store for me before Android Police cover it (unlike every other Google App).,6 months ago
11,@Christofftofferson:disqus the merging tabs is the default behaviour on Chrome with Lollipop. Instead of having a tabs screen within Chrome to switch you need to use the recent button. Whilst originally I hated the idea due to recents being filled with un,6 months ago
12,"""Now these will show a grey status bar, a sign of transparency being implemented equally for all websites.""",6 months ago
13,I don't see how a grey status bar = a sign of transparency. Also white icons on grey background is a really good idea. /s Google being Google. At least this is just a beta...for the moment.,6 months ago
14,"Grey is not transparent. I wish the bar were truly transparent, since they won't give us full screen. ",6 months ago
15,I cannot figure out how to get Wallet to work with check out forms.,6 months ago
16,It's semi-transparent. It won't be grey when you're on a page that has set it's own color like AP for instance.,6 months ago
17,"No it is not transparent...at all. Transparent means that the page bleeds into the area, not just a color change. See below. They did it in the play store. It's that way on all iOS Google apps.",6 months ago
18,"""Now these will show a grey status bar, a sign of transparency being implemented equally for all websites."" Not literally transparent, but since it was black before, now it seems like it's semi-transparent.",6 months ago
19,"Transparent would be the actual page in the status bar, not a random page color.",6 months ago
20,"Fixed the post. It looked like a grey-shaded transparent overlay that would still show the page underneath it, but as you pointed out, when you scroll down, it stays the same solid grey. Boo :(",6 months ago
21,"Yeah, they wouldn't dare be consistent with their design : /",6 months ago
22,This is transparency...,6 months ago
23,Can we get this...yesterday?,6 months ago
24,"This man needs a cookie, right now!",6 months ago
25,"The new 'Audio Notification' when playing a video is just stupid and undistracting on my android 4.1 Tablet, It keeps poping out every time i Play or Pause a Video. (A Notification like whn u get if u Download something... every time i clik play)",6 months ago
26,"I guess nobody cares about devices that are NOT running Lollipop, too much.",6 months ago
27,I want the same for Google maps,6 months ago
28,Exactly. There's no reason why they shouldn't have it by now. Maps and other apps have been like this for a long time now.,6 months ago
29,"It's entirely different. That's a hero image under the status bar, per Material Design guidelines In fact, Play Store does it incorrectly because there should be a dark overlay over the status bar. I don't see how Chrome url-bar should overlay under the status bar",6 months ago
30,"It is not different. It should go transparent, as you scroll down, just as the URL bar disappears now.",6 months ago
31,"As you scroll down, it takes a color, the content doesn't show behind the status bar as you scroll. It's only 'transparent' when at the top because of the hero image.",6 months ago
32,"Every one of Google's iOS apps have a transparent status bar. In Google Maps, you see the map there as you scroll. I'm not sure why this idea is so hard for you to grasp. There are Android browsers that do this. Javelin is a prime example. See screenshot below.",6 months ago
33,"iOS status bar is not transparent. It's colored the same as the 'app bar' (or the equivalent in iOS). Google Maps is not transparent. It has a black bar. It probably showed before, but not in latest version. Javelin status bar is transparent when scrolling (ie the content shows behind the status bar). All along i was asking what you meant as transparent status bar, because colored status bar is entirely, utterly different. I see now you meant Javelin style as the screenshot. That's what you had to explain from day one. THAT is transparent. What happens when you can see the url bar, is colored status bar. It can also be translucent, but that happens with imagery, usually. http://www.google.com/design/spec/layout/structure.html#structure-system-bars http://www.google.com/design/spec/style/imagery.html# I'd say, now that I understand what you mean, that i don't recommend that, unless it is properly implemented with web-apps, since it cuts off pressing elements at the top.",6 months ago
34,Google Maps on iOS does have a transparent status bar. The map is in the status bar see below. That is the way it should be done.,6 months ago
35,Too bad though that Javelin sucks balls,6 months ago
36,You are right about that. I couldn't stand it for more than a minute.,6 months ago
37,[,6 months ago
38,Why the hell merge tabs and recent apps is not available on tablets?,6 months ago
39,"Google, first, please fix the terrible scrolling in Chrome. Most of the time it's hell!",6 months ago
40,The reader mode animation hides behind a flag in chrome://flags,6 months ago
41,"The link in ""mentioned"" seems to be broken.",6 months ago
42,Fixed.,6 months ago
43,"This browser needs to be rebuilt. It lags too much, freezes, and scroll lags. I'm surprised Google doesn't see that.",6 months ago
44,I'm sure they know. They just don't care to put in the effort to make it as good as the 3rd party browsers. They know people will put up with it simply because of sync.,6 months ago
45,"Actually they're working on right now. They have some codes ""Purple"" for example, which are meant to improve performance (not only rendering, but memory, startup and so on as well)",6 months ago
46,"I'd like to see this lag people are always talking about. Sure, it may stall for a second when I'm scrolling while the page is loading, but afterwards it's silky smooth. I'm using a first gen Moto X.",6 months ago
47,"The lag happens after some usage of Chrome, for me anyways. Lag hits. Scrolling stutters, and sometimes, the browser will just freeze in my N5. I'll have to wait sometime, or hard reboot.",6 months ago
48,"The status bar icons really need to turn black on grey back ground. Some shades of grey, the white text is barely visible. ",6 months ago
49,The new style of bookmarks that are displayed on tablets SUCK,6 months ago
50,Disabled with this flag,6 months ago
51,*For regular Chrome* Anyone notice that Google's search bar is no longer merged with the URL bar?,6 months ago
52,that's annoying me so much ,6 months ago
53,"Not sure what you are talking about. ""Regular Chrome"" as in the non-beta Android Chrome or the non-Android desktop chrome? Both have the same omnibox as I have always seen.",6 months ago
54,"Non beta Android chrome, for whatever reason the omnibox has disappeared on me.",6 months ago
55,http://i.imgur.com/Z5L9ZgN.jpg,6 months ago
56,"Just came back here to edit my post and mention that I realized what you meant since I was just searching and saw it but you had already replied lol. I dislike that change as well, I liked using the address bar to modify my search rather than having to either use the web page search box or retype the whole query.",6 months ago
57,"Sadly, that was only an experiment and removed a month ago or so. Currently there is no replacement planned (I liked it on both mobile and desktop) :(",6 months ago
58,There is also a pretty dramatic change to bookmarks.,6 months ago
59,"The new enhanced Bookmarks setup now has an option for a list, with a round icon next to them (bigger than the old style, more compact than the new rectangle blocks).",6 months ago
60,"You can disable it under the Chrome flags. I don't like the ""enhanced"" bookmarks",6 months ago
61,when Google is going to update ancient spell checker? in version 4300? 10 years ago Opera had better spell checking than Chrome has now.,6 months ago
62,"The new enhanced Bookmarks setup now has an option for a list, with a round icon next to them (bigger than the old style, more compact than the new rectangle blocks).",6 months ago
63,On mobile or desktop Chrome?,6 months ago
64,Oh. It would be nice if we could have the colored status bar even if tabs aren't merged. ,6 months ago
65,I don't care for merged tabs. It's just a big cluttered mess in my overview.,6 months ago
66,"Yeah, merged tabs are a mess. It would take longer to find the app or tab you are looking for using merged tabs than it would to go into your app drawer and open whatever app you were using previously. ",6 months ago
67,"An app by Chainfire actually made the recent apps list in Android 5.0 function just like it used to in KitKat. It's probably one of the better apps anyone has released to fix something Google screwed up. It's called ""[root] Recently"". Great app that makes the recent apps button usable in Lollipop.",6 months ago
68,"Please let this be the first step in the right direction... I mean, they have full-screen toggle for both the toolbar and/or taskbar on ChromeOS - why not do the same on Android?",6 months ago
69,Chromebooks have keyboards.,6 months ago
70,So?,6 months ago
71,"The tool and task bars in Chrome OS don't serve the same purpose as the nav and status bars on Android. Rather, keyboards on Chromebooks are the equivalent of physical/capacitive keys on an Android phone. Hiding the tool and task bars (at the user's request) is inconsequential given that the primary means of navigation is left intact and ultimately you get a more ""app-like"" experience for websites in removing the peripheral interface, something Google's been working on for quite a while.",6 months ago
72," Considering Google's efforts in making web sites feel more like native apps, I doubt a full screen browser is something they'd do on mobile when they're interests are better served by merging tabs with apps and the ""add to home screen"" feature.",6 months ago
73,Full screen just needs to remove the status bar. That's the beauty of OFF SCREEN BUTTONS!,6 months ago
74,I had this for a bit when I first read the article... and now it's gone! Have Google removed it already or what?,6 months ago
75,"Still black on mine... Never saw the change. However, I do have the proper version and everything else mentioned in the article...",6 months ago
76,"""..switching to the Reader mode"" ???? What reader mode???? IT doesn't work, I activated IT from chrome://flags but is not working, there is NO reader mode!",6 months ago
77,"Yeah, what ""reader mode?""",6 months ago
78,http://www.androidpolice.com/2014/10/14/google-chrome-beta-updated-to-v39-with-reader-mode-and-tweaked-tab-closing-animation-apk-download/,6 months ago
79,< col Hiiiiiii Friends....'Jackson . although Janet `s article is flabbergasting... last week I bought a top of the range Infiniti after having made $7726 this - five weeks past and just over 10/k this past munth . it's realy the most-rewarding I have ever done . I actually started seven months/ago and pretty much straight away started to earn minimum ,6 months ago
80,$82.. per-hour . visit site HERE'S MORE DETAIL ,6 months ago
81,????????urt,6 months ago
82,What's that down arrow in your navigation bar is it a notification drawer pull down option?,6 months ago
83,LG option.,6 months ago
84,Seriously? It took them months to change the status bar color? And still no material chrome on tablets...,6 months ago
85,Wow guys you have to do something with your Mobile site its so annoying to scroll without hit an ADS and how ridiculous crowed it look. I stopped visiting your mobile site.,6 months ago
86,Adguard is magical. No root required.,6 months ago
87,Still shows up black for me. I'm on the listed version of Chrome beta... On a Nexus 6. Running stock 5.1,6 months ago
88,Edit: oh and my tab/recents have always been merged never toggled it off.,6 months ago
89,same,6 months ago
90,How did you get a download button into your navigation bar? Seems pretty sick. ,6 months ago
91,"My best guess is that it's an LG device and that's a button to pull down the notification shade, implemented as a part of their skin.",6 months ago
92,"Reader Mode IS NOT working on Nexus 7 2013 (Lollipop 5.1), anyone know why? The service is enabled in chrome://flags, but NO buton for Reader Mode!",6 months ago
93,I don't think reader mode is currently available on tablets.,6 months ago
94,Did they finally manage to fix the missing reload button in the phone ui?,6 months ago
95,https://code.google.com/p/chromium/issues/detail?id=411335,6 months ago
96,I don't think it was ever missing. It was moved to the three dot menu. Chrome even has a swipe to refresh gesture as well.,6 months ago
97,"It's not broken. That's the way it's supposed to be now. The refresh button is in the overflow menu, or you can pull to refresh. There's no need for a button cluttering up the UI",6 months ago
98,Agreed. Pull to refresh really does solve the issue (at least for me). I wish all other apps (especially mass transit apps) would adopt this gesture.,6 months ago
99,"No way that's such a clumsy way to do it, it's just broken and needs to get fixed ",6 months ago
100,"Yeah, I don't have this grey status bar thing. I'm on beta 43",6 months ago
101,The new update ruined video playback for me. When in fullscreen and landscape it won't give me ANY playback controls.,6 months ago
102,"This has been bugging me since i saw it: What the hell is the point of the ""Audio playing"" notification they have added? It's not like you can background audio or even switch tabs, the MOMENT you do any of that everything stops playing, so at ALL times when audio is playing (i.e. whenever that notification would appear) you are already ON that tab...which makes it utterly useless (now this is different on the computer where you can have audio in the background, on another tab etc, and sometimes it's useful to know which tab started playing that loud advertisement).",6 months ago
