$, #ApplePay, :, (, ), RT, -, this, iPad, Despite, Best, launches, G, to, surely, GRNH, Buy, @greengrotech, Reuters, gains
mobile, payment, LoopPay, LG, wallet, Android, :, Hackers, payments, /, on, hackers, Digital, to, ..., -, data, NFC, Safe, for
., Pay, in, More, the, Apple, U, S, . ..., Reactions, #STpromo, Twitter's, :, software, Bank, over, RT, than, Ireland, And
Starbucks, ,, Apple, Pay, :, ', Chili's, to, ", Google, -, Wallet, RT, Coming, iOS, New, Is, Square, To, Tech
., to, !, ?, the, I, you, is, a, it, for, on, pay, my, be, ,, and, card, your, wallet
,, Pay, Apple, KFC, and, a, the, ..., to, is, for, of, in, :, at, more, company, working, says, new
Samsung, :, Pay, RT, How, Apple, to, vs, is, coming, #TB, #Tapibook, http://t.co/4gs8grsAJM, ?, via, Central, exec, -, #mobilepayments, in
Pay, Apple, to, in, coming, the, -, Chili's, Canada, :, and, US, year, launch, will, ..., rumored, next, on, is
2016, de, Delta, Pay, y, ., Launches, 29, EMV, en, la, >, ,, Top, Apple, launched, a, Fly, es, se
*, Chinese, Mobile, The, :, expand, Will, of, Wallet, App, Weekly, 6, A, -, With, ,, Pro, Payment, Payments, Is
