{"text": "Google Wallet Tap And Pay Doesn't Work For The Note 3 Still?"}
{"text": "Unless they magically fixed the chip in the Note 3, no."}
{"text": "Man can forget about the basics, especially when a bit frustrating"}
{"text": "The order tracking didn't really make sense to me at all. I prefer it in Google Now. Glad it's gone."}
{"text": "Yeah, that seemed pretty silly to have there."}
{"text": "I was sick of getting double notifications... and since I mostly order from Amazon, my history is already stored in one place"}
{"text": "I agree, it makes more sense to come up in Google Now, which is probably using an activity to talk to Google Wallet backend... im assuming."}
{"text": "Nope. Google now is talking to Gmail similar to how Wallet was talking to gmail"}
{"text": "Interesting, so instead of watching the \"payment gateway\" they are watching \"transaction indicators\""}
{"text": "if you get email about a purchase in gmail it shows up on the order page. I made some purchase online via wallet and they don't show up either. its purely gmail"}
{"text": "Should of done an april fools joke about how wallet was opening up to everyone in the world"}
{"text": "*Should have"}
{"text": "*Should HAVE"}
{"text": "*should HaVe "}
{"text": "I hope Google brings Wallet for everyone's app drawer although only for check Play's history paymentor others online payment. But meh maybe later like N4 Factory Image... :/"}
{"text": "what?"}
{"text": "Wow. Always nice when a search company bothers to add search to an app they develop."}
{"text": "How about search for Hangouts, Google? Better yet, how about making Hangouts a better Hangouts?"}
{"text": "Still no Wallet in Europe.. what the fuck, Google?"}
{"text": "Don't worry, Paypal works very well in Europe and is a superior service in every possible way."}
{"text": "I want Google Wallet because with the incoming NFC wave (within a few years you will be able to pay with NFC anywhere) I can just use my phone to pay."}
{"text": "Talk to your representatives in government. "}
{"text": "Soon to be an Apple Pay ripoff"}
{"text": "I've pretty much given up on Google Wallet for Tap and Pay, since every time I use it, it fails*. Does anyone use it often?"}
{"text": "*I always try to use it at Home Depot though, so maybe it's a problem there"}
{"text": "Since Apple released their ApplePay, I have had a difficult time using GoogleWallet. I hope that this get's fixed soon."}
{"text": "Where were you able to use it before? I haven't really looked into how the two systems work, but I'm assuming they are not compatible with each other?"}
{"text": "I used to use Google Wallet at CVS, Home Depot and some other locations, using my Nexus 5, but I believe that these places had to update their card reader software to accept ApplePay, which I think may have caused my issues with using Google wallet. "}
{"text": "I just hope that GooglePay comes out soon, so that I can begin using my phone again like I used too."}
{"text": "CVS disabled tap and pay at their locations because they're amongst a group of retailers developing their own system. "}
{"text": "Home Depot turned off Paypass entirely, even though Google Wallet worked there before while Apple Pay Mastercard did not, now neither work. Who knows when or if they will ever turn it on again. But yeah not Google Wallets fault, its Home Depot's."}
{"text": "Home depot sucks. I use it at Walgreen's, McDonalds, best buy, lowes, and at one point rite aid, don't know if they ever stopped their crusaid. I believe loves has it as an option too."}
{"text": "Yes, I'm glad tracking is gone from wallet. I much prefer it in google now. Unless you don't use Now, I see this as a positive."}
{"text": "\"since it's mostly redundant to Google Now's shipment tracking feature.\" "}
{"text": "The problem is, Google Now randomly decides to stop tracking orders. Wallet doesn't. I have 5 orders from China and after two weeks they stopped showing up in GNow. They still show in Wallet. "}
{"text": "Does the new update let you choose which Wallet account/credit card you have active? If you have your work/developer account loaded on your personal phone so you can buy work supplies with it. I have both but can't get past that. Never have the time to try out because i dont want to waste time unlocking/untangling charges. "}
{"text": "Also, more important, can you disable tap and pay without turning off NFC yet?"}
{"text": "The whole google wallet experiment seems not well thought out. I keep checking every update. But no more."}
{"text": "\"Does the new update let you choose which Wallet account/credit card you have active?\""}
{"text": "Yes. There is an account switcher in the hamburger menu."}
{"text": "\"Also, more important, can you disable tap and pay without turning off NFC yet?\""}
{"text": "No. But why would you need/want to? Considering you actually have to tap your device to the card reader, it seems like if you don't WANT to tap to pay, you don't have to."}
