{"text": "Welcome to /r/Google/r/Google is for news, announcements and discussion related to all Google services and products. Content GuidelinesPlease focus on community-oriented content, such as news and discussions, instead of individual-oriented content, such as questions and help. Always try and follow the reddiquette.Related Subreddits/r/Android/r/Chrome/r/ChromeOS/r/Chromium/r/Youtube/r/GooglePlus/r/GoogleTV/r/GoogleGlass/r/AndroidAnything/r/GoogleMaps Subreddit CSS is /r/Naut."}
{"text": "Edit: I've been restored!!!!!  Someone at Google contacted me yesterday (10 minutes after posting this which I believe to be a complete coincidence) saying they were high level CS and would personally work until this issue was resolved.  Sure enough, I woke up this morning and my fiancee's account, our wedding account and my account have all been restored.  If anyone runs into this issue, just bombarding customer service with emails and phone calls asking for escalation every time you get another permanently closed email automated response.Sorry this is so long.I've been using Google Wallet essentially since it came out 4 years ago.  I have two accounts set up (well within Google Wallet's terms of service) one of which is for my android phone and everyday use and one of which is being used as a bank account to raise and spend money for my fiancee and my wedding next summer.  I have been using these accounts extensively between friends and family to split checks rather than give a waitress 6 credit cards, save up money, make tap to pay purchases, online purchases - pretty much everything you can do with Wallet I've been doing for years now and I love it.Out of the nowhere my fiancee got an email saying her Google Wallet account was suspended.  Shortly after I received the same notice for both of my accounts (personal and my wedding fund account).  Because I trust Google, I figured it was nothing more than a security precaution or something that I had inadvertently done.I called up Google wallet customer service and they couldn't tell me anything.  I had to work my way up the food chain until I got someone that could actually help.  He told me they needed further verification of my identity and send me a form to complete and it would be a quick and easy fix.  I completed the form which consistence of sending a photocopy of my passport, my driver's license and my bank account statement (Way more information that I felt comfortable with but I seemingly had no choice).  A couple hours later I got an email saying that my information had been reviewed and that my account was permanently closed for violation of Google Wallet terms of service.After many phone calls and emails, I finally was able to find out what part of the terms of service my fiancee and I has supposedly violated.  Here it is: \"Per Google Wallet's Terms of Service (U.S. Section 2.3), GPC has the right (i) to change, suspend or discontinue the Service, in whole or in part, as necessary to perform maintenance or updates to the Service and (ii) to impose limits on certain features or restrict access to parts or all of the Service without notice and without liability.\"  This is insane right? Basically they told me my accounts were closed and tough luck and my account is forever closed with no clear reasons.  My funds would have to be reviewed.  And this is where I got a pit in my stomach like I had given money to a Nigerian Price.  I have thousands of dollars in my wedding fund account because it's my freaking wedding fund bank account.  I call the Google Wallet service team yet again.Second horrible part: I can no longer make purchases from Google Play nor can I pay for my Google Play Music All Access subscription.  I've been stripped of everything Google and I can't do anything about it.  Going to wallet.google.com/manage like the play store error tells me to, redirects me to the main Google support page.  It's like the service doesn't exist for me.Anyway, I have no idea if my wedding fund balance will ever get back to me and I don't know if I'll ever be able to use a paid Google service again.  This has been an absolutely nightmare.It seems like Google doesn't actually want people using Wallet like it's meant to be used.  Searching around the internet reveals that this is too often of an outcome.  Many in my situation said they gave up on getting money back while others said it was a grueling process that required the help of their state's Attorney General.  I seemingly have a long and tough road ahead to me just to get back my own money.This has honestly been one of the worst experiences of my life and it's messing with my wedding.  My fiancee is livid with me because I'm the one that decided we should use a Google Wallet account because I've had nothing but amazing experiences with them over the last three or four years.I have plenty of screen shots if anyone wants to see any but what I could really use is some help.TLDR: Google suspended my wallet account and is holding my wedding fund money hostage and I will never be able to use a paid Google service again including my All Access subscription and the Play store.Quick edit: Customer service was amazing and extremely apologetic and went to great lengths to get me an answer. They asked around the customer service center for any ideas. Unfortunately they just don't have access to information and we all got stuck in this black hole. I don't mean to bash them at all. They dealt with me for hours and were extremely nice and professional. They left extensive notes on my account so calling back was easy."}
{"text": "This is most likely them thinking you're using it to launder or conceal money somehow.  Most of the prepaid non-bank banks have super anal policies about moving money around.  PayPal has a similar detection algorithm and suspends accounts indefinitely as well.  I currently have almost 4k tied up with PayPal right now thanks to their crap.  They too won't tell me what I did wrong.  Luckily they just cancel your account and hold your money for 6 months per the ToS.  Doesn't sound like Google has a set # of days/months to return though, but they cannot keep your funds.  You could sue in small claims and most likely win.  I'll stay clear."}
{"text": "This is likely the right answer. You are suspected of money laundering so they have frozen your account while they file a Suspicious Activity Report with the government. And all banks have the right in their Terms and Conditions to close an account for any, or no reason. You can thank the government for your issue. There are specific regulations that protect consumers as far as funds availability. They would never restrict access to your funds unless a SAR was filed."}
{"text": "Probably should have used a real online bank account instead there are a few that are 100% free and can give you interest on your savings."}
{"text": "The ease of having family and friends donate to our wedding fund directly with just an email was the main reason for the account. Bank transfers and checks are a hassle and I don't actually need to see who gave how much. We've already created a bank account but it's just not as easy."}
{"text": "Contact an attorney."}
{"text": "This should be way higher up since Google deserves a butt kicking for the way they treat wallet customers!And OP while at it, make them open the service up for international customers"}
{"text": "Yeah, but if it were me i would have transferred that money into a checking or savings account somewhat quickly.  Doesn't mean that you were wrong or google was right, but that's just what I would have done."}
{"text": "Its FDIC insured up to $100,000 and I've used Google Wallet extensively for years now without any issues.  I had no reasons to believe there would be any issues."}
{"text": "Yeah, maybe im old fashioned but I don't like to keep money in places where I can't walk into a brick and mortar and open an account.  Banking just still seems like something that is very personal, even more so now with all the issues out there with identity protection."}
{"text": "What does having a brick and mortar have to do with it? Do you feel comfortable being able to walk into a building and yell at someone, who is equally as powerless to change your situation as any phone support rep would be?The reason to trust banks with this sort of thing is because they have long-established policies dealing with this sort of situation, and because they give 2 shits about customer service, unlike Google and Paypal. It's got nothing to do with the brick and mortar store."}
{"text": "I agree with your second point, but a branch manager for a regional bank is far from powerless-  and these are the people that actually care about keeping your business- done call center rep will not care nearly as much."}
{"text": "Having a brick and mortar available to walk into is very helpful.  You can talk to people face to face and that can lead to more cooperation between employees and customer.  Or, NexusPhan could get a court order to foreclose on Google HQ.http://business.time.com/2011/06/06/homeowner-forecloses-on-bank-of-america-yes-you-heard-that-right/"}
{"text": "FDIC insurance is for when the bank goes out of business, nothing else."}
{"text": "While it probably won't help, it won't hurt to file a complaint with the FTC:https://www.ftccomplaintassistant.gov/Information#crnt&panel1-6"}
{"text": "Depends where you live. In my country, bank transfers are very simple and quick, and no bank would just suspend your account like this. Good government regulations makes all the difference."}
{"text": "Hope you get this resolved, from what I've seen google treats wallet customer service like a joke, I've yet to see a single story where google actually stepped up and helped a customer resolve an issue. I hope they improve their customer service, but I doubt they will until an issue like yours gets more publicity."}
{"text": "Thanks I hope it gets resolved too. Unfortunately stories like this won't ever get publicity. Not enough people out there use Google Wallet to this extent so they just don't care."}
{"text": "This is pretty terrible.  You should send your story to The Verge, Engadget, Ars.. one of the big ones and see if it gets picked up."}
{"text": "I tried a few places they weren't interested. Apparently itd be impossible for them to verify if I was using my accounts for fraud or theft."}
{"text": "Hmm that is true.  But Google should be saying that is why they closed the account if that is what they believe.  Not just some catch all clause they are using for you right now."}
{"text": "I absolutely agree. They just give me the privacy law runaround which sucks. Why would google use a verification company that's only accessible over online chat and only available to supervisors and not even us account holders. Its insanely bad."}
{"text": "Call up Google.  See if they can release your financial statements.  Then tell those outlets you have financial statements."}
{"text": "I'm still not clear on what part of the ToS you violated, did they only site the part stating they had the right to randomly terminate your account? That's what most people with stories like yours say. It's all kind of typical of google though, they're just treating it like one of their little projects as opposed to something people rely on."}
{"text": "They refuse to tell me anything other than that one generic line from the ToS.  It's one of the most infuriating parts of my interactions with them.  It feels like it's all an automated system.The Google Wallet customer service team does not have access to an account once it's suspended.  It's an outside company Google uses to verify accounts and they are only available via online chat and only available to customer service supervisors.  I cannot for the life of me get in contact with these people.  Due to \"privacy laws\" the chat representative cannot give out any information to the Google customer support representatives.  So I'm stuck here with nothing.  No information and no Google Wallet.  My Google Music All Access membership has been canceled and I was one of the original users paying the promotional $7.99 and it's all gone."}
{"text": "Ouch, hopefully they start getting their sh*t together now that tap to pay is actually something that people have started to use. If their customer service system is as messed up as you say it us though I can't see how they'll be successful, sounds like both parts are basically blind to the actions of the other."}
{"text": "Every customer service representative I spoke with was fantastic. I had them on the phone for hours and there were really fightening for me. They went around and asked other supervisors if they have ever had this issue and when they did about it. Unfortunately I was stuck in a black hole of information but the people were great. They had my information for me all ready every time and had a detailed log of all previous calls. I think I'll edit the post to clarify because they honestly did everything they could and the problem is far above any customer service rep."}
{"text": "That's actually really enlightening, as a Verizon customer I normally assume the customer service sucks, so is there just nothing that anyone there can do?"}
{"text": "Oh I'm going to call customer service every day until this gets solved. Someone out there knows what to do."}
{"text": "I would be interesting to know what was it that made them contact you."}
{"text": "They probably do some automated risk management on the accounts (this is common with financial institutions), and your usage of Google Wallet was so far outside the mainstream (storing thousands of dollars on their service), that they proactively closed your account without you actually doing anything wrong."}
{"text": "Except its not in the terms of service and nobody will even tell me that's why I triggered the suspension. I was told by the customer service reps that a few thousand dollars is not considered to be out of the ordinary. Google wallet accounts are FDIC insured up to $100,000."}
{"text": "Financial software engineer here. They might not be able to tell you what triggered your freeze because they don't know. Monitoring software like what they likely are using is horribly complex and because of this, often as very subtle and very obscure bugs. Triggering this can be a one in ten million chance. Finding the connection between your case and this bug would be extremely difficult even for the people who built it - and the people now maintaining it are probably different people. Sorry, I know this sounds bad but I just wanted to explain why they might not be able to tell you any real reason. Because of this, it might even take intervention by software people and/or database people to unfreeze your account. It's not impossible to do, but it's hard to raise enough awareness that this gets prioritized. Expect this to take a long time, on the scale of several weeks."}
{"text": "Software complexity is no excuse for messed up customer relation. Every closure has to be taken seriously and reviewed or else a service cannot be trusted."}
{"text": "To prevent people from figuring out how they detect ToS violations, they will not tell you what you violated. It's standard for many web services company with a ToS. And you don't have a right to know either."}
{"text": "And people say Apple is the evil company. Wtf Google?!"}
{"text": "Fyi, Google messed up on me a while ago for my 7.99, I called them (I think it was Google play customer service) and they fixed it rather quickly. This is the least of your problems, but if you get the rest figured out and decide you still want google play music thought you should know. Good luck, I'm really sorry this happened. Email Google CEO. Heck email tmobile CEO, he actually responds, maybe he can out the pressure on. John's all about removing pain points."}
{"text": "Sure, all CEO always respond to all emails :)"}
{"text": "well no, but their assistants often do. it's just cutting through the red-tape bureaucratic crap to get to someone who can make the decisions your run of the mill tech support people can't. Had an issue with Xbox, spent MONTHS with different tiers of tech support, finally gave up, had one last try by emailing the head of Xbox, and his assistant called me the next morning and sorted it out in 10 minutes."}
{"text": "If they are doing things to report to the government your transactions, etc. to make sure its not laundering, there are laws that make it so the bank can say very limited information about the types of reports that they are filing, what they are investigating, etc. I believe it is the Bank Secrecy Act (?)"}
{"text": "Lucky for you Google Wallet is FDIC insured so getting your money back shouldn't be an issue if you have to take that path."}
{"text": "I'm... neither a lawyer nor in finance, but I'm pretty sure FDIC protection is there for if the institution is unable to give you your money back... not for if they've decided to close your account for a ToS violation."}
{"text": "I'm not one either, but my understanding is that's it for any time your money goes missing. If Google doesn't return his money, then it's the FDIC's job to give him his money back. Either way, Google and their big monopoly pisses me off sometimes. I wish the US would do what Europe did and sue them, and force them to have a customer service dept."}
{"text": "Hopefully someone who knows better than us will clarify for us :)"}
{"text": "But the money isn't missing.  Google knows exactly where it is.  They essentially took it upon themselves to freeze his account because they think he isn't who he says he is."}
{"text": "That is only if an FDIC member organization fails. FDIC doesn't protect you from them closing your account for reasons."}
{"text": "Not the same thing but I've had a problem in a similar vein.About a year ago, my Google Wallet stopped working. I could still tap to pay and add my cards just fine, but every single time, declined.Google didn't know what was wrong and my bank also didn't know what was wrong. So I added my USAA card back to Google Wallet (and I know THAT works for sure, but my USAA card isn't for casual spending so I don't have in on GW) and again, declined. Any card I put on my Wallet gets insta-declined no matter what. I've been pretty much locked out of Wallet and Google has no idea what's going on other than I'm completely SOL.And don't get me started on GPMAA...contacted them multiple times because I got hit by the duplicate device bug and can't deauthorize, and denied. every. time. I love Android, but things like this are why I keep Google at arm's length."}
{"text": "Funny : tap-to-pay is the only thing that works for me if I deselect \"Use wallet balance first\".Unfortunate to hear it was in vain for you.  The Google Wallet CS reps now are absolutely excellent (Except for my issue haha).  It might be worth a second attempt."}
{"text": "The Bancorp Bank runs Google Wallet (and ApplePay, PayPal, etc.)http://www.thebancorp.com/solutions/payments/...may have to take it up with them. Banks will do \"risk assessment\" out of the blue and close accounts they find suspicious, for no real good reason. My friend's Bank of America checking account was closed out of the blue, and as I was helping him find out why, they only read back to me their one line that they had the right to close any account for any reason, and did not have to disclose the reason as to why.Same crap that Chase did to me on two card accounts. Was fine, paid bills on time for several years, even paid off one of my cards a few months before and then they just randomly \"closed\" both card accounts for absolutely no reason, and when I pushed them as to why, I got the same spiel like BankofAmerica saying they did not have to disclose the reason why.Anyway, I'm just saying that this is probably out of Google's hands, and probably a decision made from some accounting guy at Bancorp and Google's hands are tied in the matter as they aren't the issuing bank (Bancorp is).My only advice is to never keep your eggs in one basket which is why I have more than one bank account and more than one credit card provider."}
{"text": "This is a decent post in that the issuing bank is likely responsible, but banks never close an account for no reason. There is always a reason. They may not tell you the reason, but banks don't get rid of customers indiscriminately.  You or your friend were either not profitable for the bank or your account was deemed too risky to keep open. Or both. This is one of the main reasons people should do their personal banking at a credit union."}
{"text": "Agreed. I guess for me they were unhappy that I paid off my card with interest maybe and weren't making money off of me (other card was in 0% APR for something like 16 months or so...) (best guess).  They've spammed  the shit out of me like 2 months after with lower APRs and balance transfer offers to reopen my accounts and I'm like \"You assholes didn't want my business in the first place...so?\" Lol. I just don't bank with Chase anymore since they randomly closed my cards and I had to move all my autopays off to a different account."}
{"text": "Wow thanks for all that. Pretty ridiculous closing accounts like that I had no idea. I'm very diversified just not the wedding fund so at least that's good."}
{"text": "I'm a bot, bleep, bloop. Someone has linked to this thread from another place on reddit:[/r/tmobile] My Google Wallet Nightmare - A warning to my fellow Android T-Mobile users on the best subreddit.If you follow any of the above links, please respect the rules of reddit and don't vote in the other threads. (Info / Contact)"}
{"text": "TLDR is very useful"}
{"text": "I'm sorry to hear about this. It sounds like you tripped some anti money laundering measure. I hope you get your money back and that its there in time for your wedding./u/changetip $10"}
{"text": "I can't believe you sent me money, thanks amazing - thank you!An awesome CS rep contacted me yesterday and managed to get all our accounts fully functioning in less than 12 hours.  I woke up to fully functioning Google Wallet so I won't accept your generous donation."}
{"text": "/u/NexusPhan, hiver wants to send you a Bitcoin tip for 43,341 bits ($10.00). Follow me to collect it.what is ChangeTip?"}
{"text": "That's why I would never use wallet or any similar service that is completely unregulated by government. I stick to my bank account that is tightly regulated by laws in my country, so I can be sure that my bank doesn't just \"close\" anything because an employee has a bad day.Also, I try to use as few of Google's services as possible. I don't use Google+ because I don't want to upload some post or picture that Google doesn't like for whatever reason and suddenly have my Gmail or GDocs suspended because of it.Better to buy music at one company, have your money with another, online docs somewhere else, and email with yet another company. Much safer."}
{"text": "Did you learn your lesson and transfer your money into an actual bank?"}
{"text": "Google Wallet is absolutely an actual bank.  It's 2015, who uses brick-and-mortar banks anymore?Google Wallet registered as a bank, run by BankCorp, backed by CFPB, is FDIC insured up to $100,000 and comes with a debit card that has a $5,000 withdrawal limit every 24 hours. No indication that I would have an trouble keep a few thousand dollars in there.That said, yes all my money is back in my online checking account."}
{"text": "So this is happening to me currently. They are saying they are closing my account for violating Terms of service; when I asked what Term, they said they have the right not to tell me. The whole issue is they had a payment processing error and deposited money into my account twice. So I had TOO much money in my account. I of course notified my bank of this and now I'm being punished for being honest.  I'm going to try and post something here and hopefully get some feedback!"}
{"text": "Google Wallet= WTF....Recently recieved my new wallet card = great. Went to activate it and it didn't recognize the last 4 digits of the card = hmmmm. Made the mistake of adding $50 to my account before trying to activate. Called customer service=NO HELP WTF"}
{"text": "It really sucks that your account was frozen, but I don't think Google Wallet was ever intended to store large amounts of money (like your wedding fund in the thousands of dollars). I've never seen Google market the service for such a use; it always seemed intended more for small everyday purchases like apps, fast food, etc.Keep us up to date on your success in getting your funds back though!"}
{"text": "See I strongly disagree. It's been amazing when it worked. We have friends and family email us money as wedding and shower gifts and my fianc\u00c3\u00a9e and I use our google wallet card for all our wedding purchases. If we buy something in cash we'll then reimburse ourselves and its all recorded in the transaction history. Google wallet balances are FDIC insured up to $100,000. If I was breaking the rules with $5k it should have been clearly outlined somewhere. It's not in the ToS I'm extensively familiar with them now."}
{"text": "Out of curiosity, how do you reimburse your cash purchases back to yourself out of the wedding google wallet?"}
{"text": "I send money from the wedding fund Google Wallet account to my personal Google Wallet account and then into my checking account so it's all properly recorded in the transaction history.This certainly could be triggering an automated response from fraud or suspicious activity but nobody at Google Wallet can tell me and it's certainly well within the terms of service.  To note, my wedding is next year so I've barely done anything other than add money at this point."}
{"text": "Is this through the send money with gmail feature? If so, that's interesting.  I doubt I have a single family member who has signed up for that."}
{"text": "You're an unfortunate victim of the Google Wallet money pit that formed when the account was in its infancy.  Basically people would transfer funds from their credit cards, collect the rewards, then pay their credit card bills with their Google Wallet balance.  It was a way to basically print money, and until Google stopped it hundreds of thousands of dollars were in play.This is the reason why you can no longer transfer funds from a credit card to GW, and anyone who did so in large amounts has been flagged.  Sadly, it seems you were flagged as a false positive.  I'm sure it'll all work out in your favor, but it could take time."}
{"text": "Wow. Some people man.I don't think I've ever used a credit card (I withdraw directly from my checking account) on it because Google charges you a fee these days but I'm not sure about family that were donating money to me. I can't blame Google for aggressive abuse protection but if a human being just looked at my account for a minute they'd see it's not for this purpose."}
{"text": "I moved \"money\" from my credit cards to use the Google Wallet cash at an ATM. No cash advance or anything."}
{"text": "When was that? They charge a 2.9% fee for all credit card cash transfers now."}
{"text": "I never said it was free. It doesn't let me do this anymore though.http://gyazo.com/f10af43590526f1aa0b06a85a581e673"}
{"text": "http://i.imgur.com/6ohXj59.png"}
{"text": "Well, you aren't allowed to buy lots of stuff using Google Wallet. Travel is an important one. Did you buy your honeymoon with Google Wallet?"}
{"text": "That's wallet for business so it doesn't apply to me. Completely different set of rules and terms of service.  I do no business transactions whatsoever. That said, I've only ever bought items with tap to pay and my credit card so I get rewards points which should be anything my credit card allows. Anything else is reimbursements and donations. I planned to do a lot more but my wedding is next year so I haven't yet and now I can't."}
{"text": "Few questions.1) why did you use wallet like a bank account when it isn't a bank account? They have no federal backing or bank-like regulations.2) why did they do this? I know they CAN but what is the motivation? All I can think of is someone saw a big sum of money and decided to close the account either a) to keep the money or b) they thought it was drug money, because using Google wallet as a bank account is suspicious."}
{"text": "Wallet balances are now FDIC insured, so they have at least some federal backing.Yes, they probably closed it temporarily to investigate for illegal activity. A regular bank could do this, too, but I imagine Google is more uptight about it since they don't have decades of experience in handling other people's money."}
