{"text": "Welcome to /r/Google/r/Google is for news, announcements and discussion related to all Google services and products. Content GuidelinesPlease focus on community-oriented content, such as news and discussions, instead of individual-oriented content, such as questions and help. Always try and follow the reddiquette.Related Subreddits/r/Android/r/Chrome/r/ChromeOS/r/Chromium/r/Youtube/r/GooglePlus/r/GoogleTV/r/GoogleGlass/r/AndroidAnything/r/GoogleMaps Subreddit CSS is /r/Naut."}
{"text": "My wife and I used google wallet frequently for maybe 1-1.5 years, until her account was flagged for fraud.  This is what happened, and what you should keep in mind.We mainly transferred money back and forth quickly for convenience and to control budget outside of using a debit card.  We used Wells Fargo, and after getting fed up with them, moved to a local credit union.  Here's something very important to keep in mind if you switch banks:  I switched my google wallet card to our new bank while she did not.  She stayed linked to an inactive bank account.  Everything was fine for maybe another 6-9 months after killing WF.  Eventually, her number wore off of her google wallet card, so she had to request a replacement.  Upon doing so, her account was immediately flagged for fraud and disabled.After 10-20 lengthy phone calls, no one would say anything other than \"we don't really see any fraud, but the decision is final\" \"a senior whatever will call you back (never did)\".  This was over months.  Her $75 dollar balance was \"sent back to the bank\", and her account was permanently killed.  No more google wallet.  OK, fine, whatever.  It was great, but now we are back to using debit cards.  The $75 was \"transferred\" back to WF, but really just disappeared.  Fine, whatever, not worth the effort.  Here is the part that really stings though: since google wallet controls all google app purchases, she can never purchase another android app on the account.  Unfortunately, her next phone will probably be an iPhone.If there are any google people that read this, your wallet support service is a joke.  The case # was 0-9080000005960 in case you are curious.For all other google wallet users, make sure you keep your bank info up to date.*EDIT for clarification.  I'm sure the card was flagged as soon as the newly issued card tried to re-verify the bank account.**EDIT regarding the lost balance.  To be totally transparent, many calls were made to google wallet support regarding the lost balance and fraud flag.  Google stated initially said a check would be mailed (when the account was closed).  Instead, they claim it was sent to the bank, via transfer... the same account which they should have known was inactive.  They said \"call the bank, we sent it\", no reference numbers, tracking numbers were provided.  We called Wells Fargo one time only, because this issue had gone on long enough, and we were completely fed up at this point.  The bank account had been closed for up to six months at this point in time.  During the only call to the bank, they said \"we see no transfer\".  WF checked anything that would have been posted during the months between having the wallet account closed and the current date (at the time).  The bank couldn't find the money, and we didn't take it up as a bank issue.  We wasted so much time with Google at that point, we wrote off the loss to minimize further frustration.***EDIT - Update from google"}
{"text": "Thanks for the warning. That's really disconcerting that your wife's money never got transferred. $75 isn't exactly pocket change."}
{"text": "As bad as losing $75 is, I'd be more pissed about losing Google Wallet.  Since my whole digital life is tied to Google I rely on being able to pay my Drive storage bill, or renew my Music All Access subscription, for instance.  Not to mention buying new apps or movies or whatever.  I really hate seeing stories like the one OP posted because I think we all know Google really isn't great at customer support and I, for one, always have a nagging fear in the back of my head that something could go wrong with my Google account and totally fuck up my life.  I hate that feeling..."}
{"text": "Same here."}
{"text": "[deleted]"}
{"text": "It kinda is pocket change...What's the point of arguing over this bit? It is to some, isn't to others. Like you said, what's it matter?"}
{"text": "If that's pocket change to you, can I have your pocket change? It could let me eat this week."}
{"text": "I too managed to get my google wallet account closed and have gone between Google email support 25 times and via phone a few times with no avail. How do you allow an account to be closed that is so integrated into everything Google Service Payments related? There's GOT to be a way to re-enable the account.. Somehow..Have you guys tried using this link:Your Google Payments is currently suspended so we can protect it from fraud. Submit this form and the requested documents below for us to verify so you can regain access.https://support.google.com/payments/contact/verificationI gave up on re-opening my account and I am furious at Google about it. I randomly decided to go to wallet.google.com the other day and instead of sending me to a useless support page, it directed me to the above link this time. So maybe with Android Pay and such coming out they are looking to finally fix this terrible issue they have with account closing and support?I contacted them two days ago via this link and still waiting to hear back from them. I put in my drivers license and bank statement. Maybe it'll work for you aswell?Please let me know if you have already tried this though because I'm really banking on this method working. I'll be so disappointed if it doesn't.EDIT: My case number is 4-6711000007150 if anyone at Google happens to be reading these things.."}
{"text": "Keep us posted!"}
{"text": "STILL have not received a response back from them. It says it normally takes 24/48 hours for the account to be reverted, well it's been more than a week and I haven't heard a word back from anyone over at Google."}
{"text": "The same thing happened when this all started.  They kept saying they would contact within 24-48 hrs and never did.  Over and over...very frustrating."}
{"text": "I just posted my issue with Google about 10 minutes ago. I had to give verification as well and after a week, my account still wasn't verified. When I called in to ask what was happening, they had to talk to a 'specialist'. I then get an email stating my account has been permanently closed and they have a right to not tell me why. It's been very frustrating."}
{"text": "They still haven't gotten back to me and I filled the form out 2 weeks ago. I just can't believe a company that large would allow for accounts to be permanently closed like that."}
{"text": "She may be able to use PayPal as a payment method on Play as a workaround. Edit: typo"}
{"text": "That's what I do. Wallet does not existing in my country. Edit: autocorrect"}
{"text": "My experience with Google Wallet customer service has also been terrible.I made a purchase at Office Depot with Google Wallet. I make a lot of online purchases for work and it made sense to load my business card into Wallet since a lot of websites accept Wallet. In the store, I specifically choose that card before tapping my phone since the purchase was for work. When it was my turn, I made the purchase, terminal said \"approved\", I got my receipt and I was on my way.About two hours later, I get a notification on my phone that the purchase was declined, but I was already long gone. I thought it was strange, but I figured it wasn't my problem.About 8 hours later, I hear my phone chime as if I had just used Google Wallet to make a purchase. When I looked, it was that same purchase that was declined, but now it said \"completed\". I thought \"great, whatever the issue was must have been resolved\". Right? WRONG.A couple of months later, I'm looking through my wallet transactions, and I noticed the Office Depot purchases. It was the first time I realized that I was given a reason for a decline. The reason: \"for your security, you must bring your device online at least once every 24 hours\". Okay, my device is always online anyway. Right after that listing is the completed payment, but it was charged to my personal debit card, and the address of the store was all wrong. I was furious. Who authorized this change in cards? Certainly not me. If there is an issue with my card, that should come up at the terminal while I'm paying, not several hours later, and I should be given the choice in how to handle it.Customer service was called, and I spoke with three different people. Their responses led me to believe that they were all robots. They kept giving me the same canned response, and refused to provide an explanation for the error message or the random switch in cards, and to this day, I can't figure out how such a big fuck up could have happened. It hasn't happened to me ever since then, but something like this shouldn't even have happened once."}
{"text": "My primary account's Google Wallet account was also terminated. These are the problems I faced and solutions I had to find - Can't buy anything from play store - Installed Aptoide and pirated apps for few months. What does Google expect? Not use my $400+ worth of phone? Later on, I linked my secondary account to the phone and now buy apps using wallet of that account.Can't top-up Google voice credit balance - This hurt really bad. I used GV for my outbound international calls. GV offeres the lowest rates in the market and now I couldn't use it. Had to create a second account and port my number to that. GV can't transfer call / msg history, so lost all of that in the second account.Opinion Rewards - Had some balance remaining in my play store credit via Google opinion rewards. Even today I am able to receive surveys there and submit answers and I still receive credit there. My current credit balance is $21. And yet, Google won't let me use this balance. I pirate apps just out of spite sometimes.The new Google Wallet (the send money to friends thingy) and the Android Pay thing - yea, I'm staying far away from those."}
{"text": "This is a great way to keep customers, thanks Google!"}
{"text": "If that shit happened to me. I would go bananas. Don't think I could go back to Apple."}
{"text": "I can't believe you're okay with $75 vanishing. Do you think Google or your bank would be okay with it if you were supposed to send them $75 and it never arrived? Other than that, I don't understand why technology companies have such terrible customer support. Is there some sort of competition for worst customer support I don't know about? Is everybody just going after second place because Valve wins every year?"}
{"text": "Google Wallet's team apparently doesn't like an honest person. I, like you, have used Google Wallet mainly as a way to transfer money quickly. I had deposited money into my account and 9 days later is was deposited AGAIN into my account. So I made a claim with my Bank because I don't know who's money this is and now after 14 days I am still trying to figure out what went wrong. They have told me they are permanently closing my account and basically there is nothing I can do. I know have to go through a whole other process in order to get my ~$300 back into my bank account. Their support team has been very nice and tried to help but each time I was told they needed to talk to a specialist or I needed to email the specialist. Their \"Specialist\" Team has given me no help at all nor any valid reason why my account is being closed. My issue number has [4-4005000008669]. Hopefully someone will see it and figure this all out. EDIT: Added Link. Previous post here"}
{"text": "I just read your post.  That is terrible!  Your story is really much worse because you were actually trying to help them out."}
{"text": "To think that if I had just accepted the extra deposit, all of this would have been avoided!! It's a shame that they aren't even trying to make this right.They are in the process of returning my money, hopefully it will transfer quickly."}
{"text": "I'm sorry, but you are blaming Google for your wife's fuck up. She didn't so what she should have, Google did exactly what they should have done and what their system is designed to do. So really the only warning here is to not be a fuck up and make sure when you change important information that you update it where you are required to update it."}
{"text": "You seem to be arguing that it's fair for Google to permanently ban her from Google Wallet and Play Store purchases due to the fact that she didn't update her credit card info in a timely manner. I have to strongly disagree with that."}
{"text": "isn't the ban only on that account. cant you just open a new one using a new email address?"}
{"text": "Yes, you can, but all previously purchased items are no longer there, plus a new email account.  All of her online accounts are tied to that email, all contacts have that email, etc.  It honestly is easier for her to give up wallet/android/paid google services/etc.  The funny thing is, unless they reversed this, they lost out on all of the future money she would have spent on apps/services.  The joke's on them, right?I, on the other hand, use lots of paid services and it would have been devastating."}
{"text": "Not sure if Google bans you by name or by email address. You would lose all your Google Play Store purchases though."}
{"text": "She may be guilty of not updating the information, but Google can't pretend to close money/payments related account to users on unfounded fraud accusations without offering any recourse to defend and/or reopen it in case of mistakes that may happen for sure. That's an unhealthy business-customer relationship.We're not talking about a free service here, Google has to understand the difference between poor support for free products and poor support for money involving products, there's a huge difference there."}
{"text": "But in essence this is a free service. Didn't cost anything to setup the account, doesn't cost anything monthly. When you use it it costs the people that you are paying. Unless you use a debit card to add money to your account there are no fees. I know I haven't paid any fees on mine in the entire time I've had it. it involves money yes, but it is a free service. You want horror stories, read anything about paypal."}
{"text": "Do you remember every line of every policy agreement you have signed up for?  You can get a google wallet account without linking it to a bank account.  It doesn't seem like a requirement, plus she always kept a positive wallet balance because I always transferred her money.  Do you think a simple lapse is worth a lifetime ban?  Why not say \"Hey, we had trouble verifying your bank info, can you please update your info\" like a normal company?"}
{"text": "So if someone makes a mistake they are just cut off?  If your bank or another organization that handles your money did this to you I bet you'd feel entirely different.  There needs to be a way to rectify issues like this, people are going to make mistakes and that doesn't mean they should be cut off from their services."}
{"text": "Seems more then just a mistake. This is like moving and not setting  a forwarding address then getting pissed cause your paycheck was sent to your old address."}
{"text": "It's more like getting fired and no longer receiving any paychecks because you didn't change your address."}
{"text": "How is that or your example more than mistake??  People forget to do things and make mistakes once in awhile.  You're saying that if you make a mistake there should be no recourse to have the issue easily rectified?"}
{"text": "I agree it was due to her fucking up and not changing very important information which she was required to, but Google also could have handled it completely differently and not banned her. They both seriously fucked up."}
{"text": "What you might not understand is: you don't need to tie wallet to a bank account.  It isn't an obvious requirement, hence the \"warning\" post to this sub.There no warnings, reminders, etc. from Google Wallet support.   It is hardly a \"fuck up\" as some people might think.  She used her card for months after we closed the one bank account.  When the new number was activated, it did a re-verify to the bank, failed, flagged as fraud, and permanent ban.  No warnings, no indication, and not only that, they won't even admit that this caused the fraud flag.  The \"specialists\" say: we can't see why it was flagged for fraud, but you are permanently, irreversibly, banned.  It is a weak system."}
{"text": "ah, i see. yeah i agree then, that isn't really a mistake on her part, especially if google hadn't sent any warnings."}
{"text": "She stayed linked to an inactive bank account.Well there is the issue. Things like this are your responsibility to fix right away.It's like how some companies close your account if you issue a chargeback. The actual effort to fixing the issue isn't worth their time or is against their tos policy."}
{"text": "But she didn't pay from the bank account.  Her account had a positive balance for months afterwards from my transfers.  It would never actually charge from the bank because her payments were not set to overflow to bank, it would just deny the charge if she didn't have the funds available.  Upon re-verification, there should be a warning to update bank details.  She never actually tried to charge against a bad bank account."}
{"text": "[deleted]"}
{"text": "Nobody wants to be inconvenienced like that, not to mention the chances they take, over some screwup that Google should be able to fix with about 5 minutes worth of work."}
{"text": "I have a better idea. She should get an iPhone."}
{"text": "Why not use the Amazon App Store for her?"}
{"text": "Well, to be honest if I was her I would be so pissed that I would refuse to use anything Google related unless there was no option and I would also probably get an iPhone in that situation."}
