{"text": " Welcome! Welcome to r/Apple, the community for Apple news, rumors, and discussions. If you have a tech question, please check out AppleHelp! New Product Release Dates Notice an incorrect or updated release date? Message the moderators! Product Date Apple TV October 26! iPad Pro November Apple Pencil November Smart Keyboard November New to Mac? Are you a new Mac owner? Check out this user-maintained wiki for helpful tips! Not sure what to buy? Check out this user-maintained wiki, ask in the dedicated sub /r/AppleWhatShouldIBuy or ask in the Wednesday What Should I Buy Megathread! Details are below. Rules No memes or direct image/video posts. No NSFW content. No threads designed as rants (please message the mods if you have a specific concern). No editorialized link titles (use the original article\u00e2\u0080\u0099s title when possible). No rude, offensive, or hateful comments. No posts that aren\u00e2\u0080\u0099t directly related to Apple or the Apple eco-system. No technical support questions (see the event schedule for more information). We may approve your post if it is a time-senstive emergency or widespread issue. No spam or self-promotion (see the event schedule for more information). No posts or comments related to piracy. No selling, trading, or asking to purchase devices. No posts about bugs in beta software. These belong in /r/iOSbeta, /r/ios9, /r/OSXBeta /r/osxelcapitan, or /r/watchOSBeta. Events Event submissions must be a comment in the weekly stickied megathread, or will be removed. Event Name 9am ET Tech Support Tuesday Tuesday What Should I Buy Wednesday Wednesday Tech Support Thursday Thursday Self-Promotion Saturday Saturday Weekly Megathread Archives IRC Chatroom Join via web chat IRC Server: irc.snoonet.org Channel: #apple Apple Subreddits Apple Help Apple Music Swift Programming Language SimpleiOS Mac Subreddits OSX Mac MacApps MacGaming Hackintosh Apple II BootCamp MacSetups Retina AppleSwap VintageApple OS X El Capitan iOS Subreddits iPhone iPad Apple Watch AppleTV iPod iOSGaming iPadMusic AppHookUp AlienBlue iOS7 iOS8 iOS9 Jailbreak iOSThemes iPhone Wallpapers iPad Wallpapers Apple Watch Wallpapers Beta Subreddits iOS OS X Apple Watch Tech Subreddits Technology Laptops Programming Content Philosophy Content which benefits the community (news, rumors, and discussions) is valued over content which benefits only the individual (technical questions, help buying/selling, rants, etc.). This fundamental difference in audience is why we support two communities, r/Apple and r/AppleHelp. If you'd like to view their content together, click here. "}
{"text": "My Spotify membership is due for renewal today and I am thinking if I should stay there and renew it again or move to Apple Music. Should I renew it while also trying Apple Music (free trial) at the same time? Because I was thinking why would I pay for Spotify if I could use Apple Music free for 3 months, my only problems are the ones I indicated below: The disadvantages of Spotify: They do not want to support the Apple Watch They have poor customer service (posted on their Support forums alot of times, also posted ideas for new features, got ignored) The disadvantages of Apple Music: Not sure if there's any way of importing Spotify playlists into Apple Music (cannot use the Beats Music importer, can't make a Beats Music account because I'm in Canada, my DNS (that I use to get US Netflix and Hulu) wouldn't work with Beats Music) My PS4 has Spotify on it and I use it to play music. Apple Music doesn't seem to be available for the PS4 anytime soon. I need help on deciding. Thanks alot in advance everyone! "}
{"text": "I would try the three months of apple music and then make a decision "}
{"text": "Exactly. At the very least you will save yourself $30. That's my plan. "}
{"text": "Or run both and decide, but lose nothing. "}
{"text": "Thank you very much! "}
{"text": "I've been a Spotify Premium user for about three years now, and I'm going to give Apple Music a fair shot over the trial period. I don't really have any significant complaints about Spotify, so I feel like it's all going to come down to how Apple Music's library compares to Spotify's. There are also a few wildcards that I'm not yet sure about, such as what the maximum stream quality is on Apple Music, or whether or not Apple Music will incorporate ads in any form. Ads would make Apple Music an instant \"no thanks\" for me. So, that being said, I'm sure I'll have made a decision on which way to go come October 1st. "}
{"text": "Are you gonna be keeping your premium during the trial period?? I don't know if I should keep mine or not over the next 3 months even if I'm using the Apple Music trial. "}
{"text": "I wouldn't bother keeping the premium. You can re-subscribe at any time and all your songs and playlists will be intact. "}
{"text": "I see. Thanks alot for the info! "}
{"text": "I hadn't thought about that yet. I guess I should start thinking about it. :-) I'll probably keep them both so I can compare and contrast over the trial period and not have to sit through ads. Boy do I hate ads. "}
{"text": "I'm keeping mine since it is only $4.99 with .edu, not sure if it's been mentioned but you can still stream anything on PS4 free it just has ads if you go standard. I'll give apple music their fair shot "}
{"text": "Sadly mine's not on the student pricing because they don't have that in Canada. :\\ "}
{"text": "Canada always getting shafted, so sick of it :( "}
{"text": "Actually the student pricing is only available in the US. Not even here in Sweden, where Spotify comes from :( "}
{"text": "I would also base it off the performance/stability of the new music app compared to the Spotify app. "}
{"text": "There's no way you'd get any ads. They don't even play ads for iTunes Radio if you have an iTunes Match subscription, which is only $25/year. I thought the whole reason music labels are on board with Apple is because they aren't doing a free tier. "}
{"text": "If you are paying for Apples service why would there be ads? Well, if there was that would be a bit strange. But if what helps you, op, or anyone else make their decision I'd like to say that you can transfer all of your Spotify playlists to Beats Music. Sign up with a free 14 day trial to Beats Music, then use www.beatsimporter.com. This will allow you to transfer all your Spotify playlists to Beats Music, then it will transfer over to Apple Music when it's released tomorrow. "}
{"text": "Thinking of doing the same thing. Keep my spotify premium while trying Apple Music. If Apple Music is equal or better than Spotify, in gonna switch since it integrates with all my devices. Apple music shouldn't have ads... If I'm paying a monthly fee AND have ads that's an automatic nope for me as well. "}
{"text": "The quality is slightly better at 256 Kbps AAC "}
{"text": "Same situation here, been doing spotify premium for about three years now, just cancelled my sub for Apple music. Hopefully it works out for the better. "}
{"text": "[deleted] "}
{"text": "Mine is on monthly membership. I'm not sure if they have yearly. That's a good idea. Thanks alot! "}
{"text": "You can import your Spotify playlists to Apple Music: http://9to5mac.com/2015/06/29/how-to-move-spotify-rdio-playlists-apple-music/ "}
{"text": "I've been trying that for the past hour, it's under heavy load!! Can't open the site. "}
{"text": "Since Apple will officially support migration from Beats Music, you can currently use that service as a bridge between Spotify, Rdio, and several other sources. In order to do this, you\u00e2\u0080\u0099ll need a Beats Music account (the two-week free trial will do just fine). [Update: As seen in the tweet above, it seems the sudden influx of traffic has caused Beats to rate limit the importer, causing it to become unavailable at the moment.] Once you\u00e2\u0080\u0099re set up on Beats Music, head over to the unofficial Beats Importer (beatsimporter.com) and use the button at the top of the page to login to your Beats Music account. This site uses the Beats API to connect to your account, so you don\u00e2\u0080\u0099t need to worry about it doing anything shady with your login credentials. From here you\u00e2\u0080\u0099ll have a variety of sources to chose from. You can connect to Spotify or a public Rdio account, pull in a playlist file from iTunes or Windows Media Player, or import a CSV/XML file from other apps and services. The Beats Importer will automatically find the music in these playlists on Beats and create a matching list on your account. When Apple Music launches tomorrow morning, a Beats app update will allow you to import those newly created playlists into Apple Music, and you\u00e2\u0080\u0099ll be able to take advantage of your curated playlists right from the begining rather than spending hours recreating all of your previous work. As noted above, Apple could shut off new sign-ups for Beats Music at any time leading up to tomorrow\u00e2\u0080\u0099s Apple Music launch as the new service replaces the service Apple acquired (although existing customers won\u00e2\u0080\u0099t immediately lose their account as Apple develops the Android version of Apple Music being released this fall), so you\u00e2\u0080\u0099re going to want to sign up quickly if you don\u00e2\u0080\u0099t already have an account but want to take advantage of the Beats Importer to move from Spotify, Rdio, or other services. "}
{"text": "Just checked it wouldn't allow me to make a Beats Music account because I'm in Canada. :\\ "}
{"text": "use US vpn. "}
{"text": "Isn't technology great?!?! "}
{"text": "And get chastised by Bell? "}
{"text": "Bad guide. Excludes everyone except people in U.S. "}
{"text": "I can use Spotify on any device, including any computer with a browser. It's a foregone conclusion for me. They do not want to support the Apple Watch First I have read of this, and that is fucking bullshit if true. But it's also obvious that they will change their tune in due time (no pun intended). "}
{"text": "That's one thing about Spotify I can use it anywhere. In regards to Spotify on the Apple Watch, it works on the glance but we couldn't really surf songs or even playlists on the watch. Me and ALOT of other users have been pushing for this in their Support forums but they marked the idea as \"not right now\" even after the Native Watch App API was announced, they are still set on not making an app for the Watch. I'm really on the fence here and don't know what I should do. I can save money for three months by using Apple Music, or should I stay on Spotify and be able to stream music on all of my devices? "}
{"text": "Try Decibell and Joy I use them to control Spotify from my Apple Watch. Decibell allows you to scroll through your playlist and Joy uses your voice to search and play songs Spotify. Totally mitigates the Spotify/Apple Watch Problem. "}
{"text": "Thank you very much!!! "}
{"text": "Wow thank you so much for these! "}
{"text": "You'll be able to use apple music anywhere too right "}
{"text": "I haven't heard any speculation/rumors of any web-based interface for Apple Music. So it would be limited to iOS devices, OSX or Windows (where iTunes is installed). But that's about it. "}
{"text": "I believe it's also releasing on Android later this year too. "}
{"text": "So any device with iOS, OS X, Windows, or Android, aka....like 95% of computing devices? "}
{"text": "Except it must be installed on any device you use it on, so you can't casually pull it up on a public computer. Not a big deal for me, but I can see how it would be for some people. "}
{"text": "I'm referring to web-based Apple Music player.. it sounds like you're referring to native App. Yes.. Apple has said a native App is coming to Android,.. but not until \"later this fall\". I'd be surprised to see that launch tomorrow. So tomorrow it will only be iOS, OSX and Windows (presumably). "}
{"text": "I remember reading somewhere a while ago that you would be able to use Apple music from the iCloud website Don't know how true that is or if my mind is playing tricks on me and I never actually read it "}
{"text": "I doubt that will happen.. but it would be pretty amazing. "}
{"text": "If Apple had a lala (rip) like website for apple music, I would totally be on board. I hate iTunes on pc and want to avoid it if I can. "}
{"text": "I haven't seen this anywhere, but it would be awesome if that were true. "}
{"text": "Google Play Music and Spotify have web based players. I'd be surprised if Apple Music doesn't have such a basic feature. "}
{"text": "Not entirely anywhere. Some devices do not have Spotify, one of which that I always use it on is a PS4. "}
{"text": "Didn't Spotify just release an update for Android Wear? Seems strange why they wouldn't support Apple Watch. "}
{"text": "[deleted] "}
{"text": "Chromebook? Windows PC? "}
{"text": "I might be wrong but Chromebooks can run android apps, so when the android version comes out, it might work. "}
{"text": "Not all Android apps, just the ones recompiled for Chrome OS afaik. "}
{"text": "They have to be compiled to an extension via ARC Welder, but you can very easily download that yourself and use it. "}
{"text": "[deleted] "}
{"text": "Ok, predictably lol-worthy response. "}
{"text": "Don't be a dumbass. \"Real computer\" or not, it's a very popular class of devices that is supported by Spotify. "}
{"text": "Its only popular because schools issue it. Have you ever actually used chrome os? It's awful, complete junk. The only saving grace of chrome os is that you can run Linux from a usb. Its utter garbage otherwise. "}
{"text": "Chromebooks have some of the highest customer satisfaction ratings of any machines on the market, almost across the board, for a good reason. The OS is far from junk and it serves its audience very well. I'm the furthest thing from a Google fanboy, but IMO Chromebooks is their best product. "}
{"text": "Maybe they have the most satisfaction because they only use software that most other people are using for free on other devices. You get to pay google 50-150 dollars for the privilege of using their free software, and you can't use any other company's software. You're locked into their ecosystem MORE than apple. Not to mention google cloud print is a joke, everyone that uses it has to use their iPad to print because otherwise you have to buy A NEW PRINTER FOR YOUR $50 internet connection box. "}
{"text": "Why is it always the people who know the least that seem to have the strongest opinions? You've made it very obvious that you've never used Chrome OS. Can't use any other company's software? WTF are you talking about? There is literally a store full of apps for Chrome OS, and soon it will have support for running Android apps. "}
{"text": "I have a chromebox lol. The app store is utter shit. I used it for a week, nearly wanted to throw it across a room, and then installed linux. "}
{"text": "Big Spotify disadvantage, the inability to upload your own tracks for streaming anywhere. Apple (and Google) offer this. Useful for Tool albums "}
{"text": "You can load your own files on to your Spotify playlists just fine. I do it all the time with Beatles songs. "}
{"text": "Will it then stream those songs to other devices that don't have those songs already on them? "}
{"text": "[deleted] "}
{"text": "Actually!! It does! If you have the song in your library on spotify on your computer and the computer and cellphone(atleast, dont know about other computers) connected to the same wifi, it will sync! "}
{"text": "Yea but Apple and Google puts your local files on the cloud and you can stream them anywhere. On Spotify you have to sync the song over Wi-Fi first. "}
{"text": "Touch\u00c3\u00a9. No you would have to load them onto each individual device. "}
{"text": "Which can be done fairly automatically to be fair. "}
{"text": "Touch\u00c3\u00a9? Are you fencing? Or did someone say something very clever? "}
{"text": "you can sync any song from your hard drive to spotify on other devices. "}
{"text": "if you don't have the device with the song on, you can't sync or listen. with Apple and Google, when you upload a song it treats it like one of the songs in their catalog "}
{"text": "You are right, it's not gonna be in your catalog as Google or Apple. "}
{"text": "Hmm... I thought that only worked with songs that were actually in their catalogue, hence half my library went missing when I moved to cloud only. "}
{"text": "The biggest thing that I am looking forward to is Siri integration. I doubt spotify will ever have it. "}
{"text": "Wait didn\u00e2\u0080\u0099t they open up a siri api at wwdc this year? Or was that for spotlight search? Maybe both "}
{"text": "I believe just Spotlight search. "}
{"text": "Just a search API. "}
{"text": "I believe you are thinking of the spotlight api "}
{"text": "You can do it on a Jailbroken device. However it's garbage and doesn't work properly. Think the tweak is called Assistant. I'll definitely be switching to Apple Music tomorrow. "}
{"text": "Spotify has a Student pricing for 5$, Apple does not. "}
{"text": "US only though "}
{"text": "And only 12 months too \u00f0\u009f\u0098\u00a5 "}
{"text": "For three times "}
{"text": "How do you get it again? It just kicked me off "}
{"text": "Im not sure, but try going back to the college discount page https://www.spotify.com/us/student/ "}
{"text": "You can sign up for a free trial of Beats music and import your playlists to that, because they'll transfer over to Apple Music tomorrow. You can use your phone to play music while you play PS4. Although there's probably another use case you meant that this wouldn't solve. I guess just get a 3.5 mm cable that plugs into your speakers/tv/stereo system to play music. "}
{"text": "Either way you can still use Spotify's free tier while you try apples 3 month free trial. Get the best of both worlds. "}
{"text": "If Apple has a student discount, then yes. Otherwise, I have no reason to switch. "}
{"text": "As long as you are a student, might as well enjoy it. Now that I'm out of College, I'm starting to go back to paying stuff without student discounts. :/ "}
{"text": "They do. It's 50% off "}
{"text": "Proof? "}
{"text": "Apple has said that they may do it in some tiny legalese. "}
{"text": "I actually remember seeing that. Fingers crossed. I really hope they do offer one because for myself I see no reason to switch from Spotify where I already have a ton of playlists, and I can't imagine myself being alone. And I mean $120 vs. $60 a year is a sweet deal. "}
{"text": "Yeah, that price is a lot more palatable. "}
{"text": "Yeah, is there any proof to this? "}
{"text": "Yes, his ass. Nothing has been so much as even hinted at. "}
{"text": "The ps4 having spotify is a big feature if you don't have an Apple TV so if you use the ps4 for home media often maybe stick with it until a better option arises . On the other hand iOS devices have Siri integration for Apple music and and an apple tv is only like 60 bucks or something refurbished these days and AirPlay is quite a feature. I have an Apple TV plugged into my Xbox one to work around lack of a native spotify app at this time. So I understand the usefulness of having spot icy on the ps4 especially if you spend a lot of time at home gaming or entertaining people having native spotify through your home theater system is pretty handy. "}
{"text": "I think Apple TV brand new is only $60 or $70. They dropped the price a while back. "}
{"text": "Brand new is $70. I think refurb is $55 now "}
{"text": "It's $69 new, I was averaging tax and shipping on the refurbs. "}
{"text": "As much as I like Spotify and love the fact that it's multi-platform.. I probably will be canceling it and moving over to Apple Music. "}
{"text": "I am keeping my Spotify since its $5 but I plan on switching exclusively to Apple Music while its free to really try it out. Then I will decide. "}
{"text": "how are you getting it for $5? edit: nvm, student discount, not available in canada. oh well, guess i'm used to paying double the price for everything "}
{"text": "You don't actually need a spotify premium subscription to stream on your PS4. "}
{"text": "I'll choose Apple Music here in India coz of the following reasons: Spotify isn't available in India. I have to use VPN to enjoy my music. Apple Music has regional pricing in India at just Rs 120 per month ($1.99). It's built in the Music app, no need third party apps. It feeds directly from Apple's iTunes catalogue. Music Videos are available. 3 Months free subscription. iTunes has all my regional music along with Western Music. Access to Apple Music via my iPhone or iPad or even at my Work desktop which is running Windows. All Music in one place. Easy family sharing at just Rs 180 per month ($2.99) and even my Dad who's on Android can now enjoy Apple Music (in the fall). "}
{"text": " They have poor customer service (posted on their Support forums alot of times, also posted ideas for new features, got ignored) Seriously? Spotify has excellent customer support, especially for paying customers. They usually respond to CS tickets in a matter of minutes. Suggesting ideas on Spotifys forums will not get you too much attention, for obvious reasons. "}
{"text": " \"Suggesting ideas on Spotifys forums will not get you too much attention, for obvious reasons.\" I actually made a suggestion to fix the Spotify mobile-app launching animation (here: https://community.spotify.com/t5/Live-Ideas/Mobile-App-amp-3-dots-quot-Loading-quot-Animation/idc-p/1000724 )... and the change did finally get rolled into a Spotify App update. I felt pretty great that a tiny suggestion I made actually became \"real\". "}
{"text": "I've never been able to find a good answer to most of my questions or problems. "}
{"text": "I don't know why, but I really doubt you even tried. Spotify CS really goes the extra mile when helping their customers. Mind if I ask what kind of problems you had? "}
{"text": "There is always /r/slavelabour if you want the playlist imported. "}
{"text": "There is a way to import your music. Here http://movetoapplemusic.ramonfritsch.com/ "}
{"text": "I'm giving it a try right now! The robbing the GUID/Cookie method is complex enough to drive most folks off especially pasting it properly into the python script using EL CAPITAN the search for new albums doesn't appear the same as your screenshot but I logged into the iTunes account and grabbed the cookie/guid/dssid that way! thanks! What exactly is it doing downloading the encrypted files from spotify and pushing them to apple music? Seems that threading the task over N requests simultaneously might be a better way to go about it for large playlists! "}
{"text": "Yeap, I know grabbing the Cookie session is hard for some. But that's the best way I could imagine. The only problem is that iTunes API would block your IP temporary if you place more than 2 requests per minute. That's why it's slow. "}
{"text": "Remember, Spofity also streams music at a better quality. "}
{"text": "Do not discount Apple's efforts to provide DJ stations. Apple Music is just as much about discovering new music as it is listening to your favorites. "}
{"text": "A big reason for us to move from Spotify is multi room airplay. I have about a dozen airplay devices scattered through the house/garage/porches (and one out in the 'barn' a 1/4 mile away). The ability (from iTunes) to select which rooms independently get the output is a great benefit, and is reason enough for me to switch (the products are likely to be pretty equal). "}
{"text": "Do you like to be locked in or not? I for once would never use something that is available on 1-2 platforms and is used to make the ecosystem as sticky as possible. If playing on your PS4 is important then stay away from apple music. "}
{"text": "It's available on Apple, Windows, and (eventually) Android. So locked in! "}
{"text": "Look at the stuff supported on/by spotify and then get back to me. It even works in a web browser. It's the same story as iCloud Drive. Sure it sorta works, but it's garbage tier compared to Dropbox. "}
{"text": "Spotify didn't support \"ALL the things\" on day one. Apple Music isn't even released yet. At least give them a bit of time to catch up as far as device support. "}
{"text": "Yeah, Apple is only a $700 billion company, a mere start-up! We need to allow them time to catch up with the company worth a 1/10 of them that offers better support. Seriously, Apple is struggling on cash to pay those devs! Still got to give them time to catch up on support for Apple Maps too, three years is clearly not enough for the richest publicly traded company. "}
{"text": "The only thing holding me back from fully jumping onto the Apple Music bandwagon is the lack of student pricing like spotify has, however I have cancelled my current Spotify subscription for the 3 month trial. "}
{"text": "alot: http://hyperboleandahalf.blogspot.com/2010/04/alot-is-better-than-you-at-everything.html "}
{"text": "I'm moving to Apple Music. I'll probably cancel my Spotify subscription tomorrow. I prefer everything integrated in one. "}
{"text": "There is a spotify playlist hack - use the beats playlist importer on a beats account, and then convert your beats to apple music. "}
{"text": "Sadly I couldn't use it in Canada and the paid DNS that I use for US Netflix doesn't support Beats music... "}
{"text": "Get a decent US VPN provider, I use two for when I am traveling, work wonders. "}
{"text": " My PS4 has Spotify on it and I use it to play music. Apple Music doesn't seem to be available for the PS4 anytime soon. You don't need a PS4 to do music, get an Apple TV or setup your speakers / music in another way. "}
{"text": "Yeah how about waiting for it to be fucking released first Its not like the free trial costs anything "}
