``_`` \_`` ''_'' Where_WRB is_VBZ Apple_NNP Pay_NNP for_IN the_DT UK_NNP ?_.
It_PRP 's_VBZ supposed_VBN to_TO launch_VB today_NN too.\_-NONE- ''_'' \n_NNP ''_'' }_:
``_`` \_`` ''_'' They_PRP said_VBD July_NNP ._.
It_PRP 's_VBZ still_RB June.\_JJ ''_'' \n_NNP ''_'' }_:
``_`` \_`` ''_'' Last_NNP I_NNP checked_VBD its_PRP$ the_DT 30th_JJ today_NN ._.
My_PRP$ bank_NN has_VBZ said_VBN 1/7\_CD ''_'' \n_NNP ''_'' }_:
``_`` \_`` ''_'' sadly_RB I_PRP 'm_VBP unable_JJ to_TO download_VB 8.4_CD until_IN I_PRP 'm_VBP back_RB on_IN WiFi_NNP at_IN home_NN but_CC I_PRP notice_VBP there_RB 's_VBZ no_DT mention_NN of_IN Apple_NNP Pay_NNP UK_NNP support_NN in_IN the_DT release_NN notes_NNS ._.
Can_NNP anyone_NN who_WP 's_VBZ downloaded_VBN and_CC installed_VBN confirm_NN whether_IN there_EX is_VBZ any_DT support_NN ?_. \_: ''_'' \n_NNP ''_'' }_:
``_`` \_`` ''_'' No_DT sign_NN of_IN it_PRP ._.
Nothing_NN in_IN the_DT release_NN notes_NNS ''_'' }_:
``_`` \_`` ''_'' jacks77_NNP said_VBD :_: \u00e2\u0086\u0091No_JJ sign_NN of_IN it_PRP ._.
Nothing_NN in_IN the_DT release_NN notes_NNS ''_'' }_:
``_`` \_`` ''_'' Really_NNP disappointed_VBD about_IN this_DT ..._: Should_NNP have_VBP known_VBN that_IN if_IN Apple_NNP say_VBP July_NNP release_NN that_WDT could_MD be_VB at_IN any_DT point_NN in_IN July_NNP ._.
I_PRP do_VBP n't_RB trust_VB what_WP the_DT banks_NNS are_VBP saying_VBG about_IN 1/7_CD activation.\_NN ''_'' \n_NNP ''_'' }_:
``_`` \_`` ''_'' It_PRP 's_VBZ only_RB a_DT toggle_JJ at_IN apples_NNS end_NN ._.
No_DT update_NN needed_VBN ._.
It_PRP has_VBZ existed_VBN in_IN the_DT OS_NNP since_IN it_PRP went_VBD live_JJ in_IN the_DT states.\_NN ''_'' \n_NNP ''_'' }_:
``_`` \_`` ''_'' It_PRP 's_VBZ not_RB July_NNP !_.
It_PRP 's_VBZ 30/6_CD ._.
Wait_NN till_IN tomorrow\_JJ ''_'' \n_NNP ''_'' }_:
``_`` \_`` ''_'' tomaustin44_NNP said_VBD :_: \u00e2\u0086\u0091Gutted_JJ to_TO hear_VB that_IN ._.
Looks_NNS like_IN we_PRP 'll_MD have_VB to_TO wait_VB a_DT bit_NN longer_NN until_IN an_DT 8.4.1_CD release_NN later_JJ in_IN the_DT monthClick_NNP to_TO expand_VB ..._: I_PRP do_VBP n't_RB think_VB it_PRP 'll_MD take_VB an_DT OS_NNP update_NN to_TO enable_JJ it_PRP ._.
I_PRP (_VBP probably_RB )_: could_MD be_VB wrong_JJ but_CC it_PRP seems_VBZ to_TO be_VB set_VBN to_TO region_NN and_CC the_DT facility_NN is_VBZ already_RB there_RB in_IN passbook_NN and_CC apple_NN just_RB need_VBP to_TO enable_JJ it_PRP ?_. \_: ''_'' \n_NNP ''_'' }_:
``_`` \_`` ''_'' Gav2k_NNP said_VBD :_: \u00e2\u0086\u0091It_JJ 's_POS only_RB a_DT toggle_JJ at_IN apples_NNS end_NN ._.
No_DT update_NN needed_VBN ._.
It_PRP has_VBZ existed_VBN in_IN the_DT OS_NNP since_IN it_PRP went_VBD live_JJ in_IN the_DT states.Click_JJ to_TO expand_VB ..._: oh_NN that_IN 's_POS good_JJ news_NN ._.
I_PRP assumed_VBD it_PRP would_MD have_VB to_TO be_VB part_NN of_IN an_DT update_JJ ._.
Cheers.\_NN ''_'' \n_NNP ''_'' }_:
``_`` \_`` ''_'' I_PRP thought_VBD the_DT subject_NN is_VBZ about_IN the_DT new_JJ update_NN 8.4_CD that_WDT broke_NN apple_VBP pay_NN ._.
geez_NN man.\_NN ''_'' \n_NNP ''_'' }_:
``_`` \_`` ''_'' If_IN it_PRP 's_VBZ July_NNP 1_CD it_PRP launches_VBZ apple_NN will_MD enable_VB it_PRP tomorrow\_-NONE- ''_'' \n_NNP ''_'' }_:
``_`` \_`` ''_'' Gav2k_NNP said_VBD :_: \u00e2\u0086\u0091It_JJ 's_POS not_RB July_NNP !_.
It_PRP 's_VBZ 30/6_CD ._.
Wait_NN till_IN tomorrowClick_NNP to_TO expand_VB ..._: I_PRP think_VBP they_PRP only_RB said_VBD coming_VBG in_IN July_NNP so_RB there_RB 's_VBZ no_DT guarantee_NN it_PRP will_MD be_VB tomorrow.\_-NONE- ''_'' \n_NNP ''_'' }_:
``_`` \_`` ''_'' OllyW_NNP said_VBD :_: \u00e2\u0086\u0091I_JJ think_NN they_PRP only_RB said_VBD coming_VBG in_IN July_NNP so_RB there_RB 's_VBZ no_DT guarantee_NN it_PRP will_MD be_VB tomorrow.Click_JJ to_TO expand_VB ..._: Participating_NNP banks_NNS have_VBP said_VBN that_IN it_PRP 'll_MD launch_VB tomorrow_NN ''_'' }_:
``_`` \_`` ''_'' OllyW_NNP said_VBD :_: \u00e2\u0086\u0091I_JJ think_NN they_PRP only_RB said_VBD coming_VBG in_IN July_NNP so_RB there_RB 's_VBZ no_DT guarantee_NN it_PRP will_MD be_VB tomorrow.Click_JJ to_TO expand_VB ..._: As_IN above_IN my_PRP$ bank_NN has_VBZ said_VBN 1/7\_CD ''_'' \n_NNP ''_'' }_:
``_`` \_`` ''_'' Gav2k_NNP said_VBD :_: \u00e2\u0086\u0091As_JJ above_IN my_PRP$ bank_NN has_VBZ said_VBN 1/7Click_JJ to_TO expand_VB ..._: Mine_NNP still_RB says_VBZ \_: ''_'' \_: ''_'' from_IN July\_NNP ''_'' \_: ''_'' .\_: ''_'' \n_NNP ''_'' }_:
``_`` \_`` ''_'' Apple_NNP will_MD enable_VB it_PRP when_WRB it_PRP goes_VBZ live_JJ in_IN the_DT UK_NNP no_DT update_NN required_VBN hopefully_RB will_MD be_VB tomorrow\_-NONE- ''_'' \n_NNP ''_'' }_:
``_`` \_`` ''_'' Tiny_NNP at_IN the_DT bottom_NN of_IN this_DT pagehttps_NNS :_: //www.apple.com/uk/apple-pay/Available_JJ in_IN U.S_JJ ._.
Nonetheless_RB ''_'' }_:
``_`` \_`` ''_'' kjm18_NNP said_VBD :_: \u00e2\u0086\u0091Apple_JJ will_MD enable_VB it_PRP when_WRB it_PRP goes_VBZ live_JJ in_IN the_DT UK_NNP no_DT update_NN required_VBN hopefully_RB will_MD be_VB tomorrowClick_NNP to_TO expand_VB ..._: The_DT only_JJ reason_NN an_DT update_NN was_VBD required_VBN for_IN the_DT US_NNP was_VBD because_IN the_DT Apple_NNP Pay_NNP software_NN was_VBD n't_RB even_RB on_IN the_DT device_NN before_IN that_IN ._.
I_PRP agree_VBP with_IN you_PRP that_IN an_DT update_JJ probably_RB is_VBZ n't_RB required.\_JJ ''_'' \n_NNP ''_'' }_:
``_`` \_`` ''_'' We_PRP can_MD only_RB hope_VB for_IN tomorrow_NN !_. \_: ''_'' \n_NNP ''_'' }_:
``_`` \_`` ''_'' I_PRP 've_VBP seen_VBN another_DT post_NN within_IN the_DT MacRumors_NNP forums_VBZ that_IN First_NNP Direct_NNP have_VBP said_VBN it_PRP 'll_MD launch_VB 1/7.Prior_JJ to_TO today_NN I_PRP could_MD get_VB as_IN far_RB as_IN the_DT Terms_NNP &_CC Conditions_NNP Santander_NNP UK_NNP had_VBD laid_VBN out_RP with_IN my_PRP$ Visa_NNP Debit_NNP card_NN and_CC MasterCard_NNP credit_NN card_NN (_: when_WRB the_DT region_NN was_VBD set_VBN as_IN 'United_JJ States_NNPS ._.
'_POS )_`` For_IN a_DT while_NN today_NN I_PRP was_VBD unable_JJ to_TO try_NN again_RB (_. whilst_NN Apple_NNP were_VBD preparing_VBG to_TO roll_VB out_RP 8.4_CD to_TO the_DT public_NN )_: and_CC any_DT attempts_NNS since_IN then_RB tell_RB me_PRP it_PRP 's_VBZ not_RB possible_JJ to_TO add_VB a_DT card_NN at_IN this_DT time.\_NN ''_'' \n_NNP ''_'' }_:
``_`` \_`` ''_'' If_IN the_DT wording_NN on_IN the_DT keynote_NN was_VBD \_CD ''_'' \_CD ''_'' from_IN July\_NNP ''_'' \_: ''_'' ''_'' }_NNP
``_`` \_`` ''_'' Nothing_NNP from_IN Natwest_NNP yet_RB -_: this_DT from_IN their_PRP$ forums_NNS last_JJ Thursday_NNP :_: \_: ''_'' \_: ''_'' just_RB to_TO keep_VB you_PRP all_DT posted_VBD ''_'' }_CD
``_`` \_`` ''_'' Ok_NNP just_RB spoke_VB to_TO a_DT friend_NN who_WP works_NNS at_IN Santander_NNP UK_NNP and_CC \_NNP ''_'' \_: ''_'' mid_VBD july\_-NONE- ''_'' \_: ''_'' is_VBZ what_WP 's_VBZ being_VBG bounced_VBN around_RP internally_RB and_CC I_PRP was_VBD also_RB informed_VBN of_IN a_DT daily_JJ \u00a315k_NN limit_NN !_.
That_DT should_MD cover_VB most_RBS things_NNS :_: /\_: ''_'' \n_NNP ''_'' }_:
