``_`` \_`` ''_'' I_PRP ca_MD n't_RB set_VB up_RP either_DT of_IN our_PRP$ Discover_NNP cards_NNS ._.
I_PRP can_MD get_VB through_IN the_DT process_NN up_RP to_TO the_DT last_JJ step_NN ''_'' }_:
``_`` \_`` ''_'' I_PRP 've_VBP added_VBN my_PRP$ Discover_NNP card_NN to_TO both_DT my_PRP$ iPhone_NNP (_NNP iOS_NNP 9_CD )_CD and_CC Watch_NNP (_NNP 2.0_CD )_CD without_IN any_DT problems_NNS ._.
Maybe_RB this_DT is_VBZ a_DT technical_JJ glitch_NN that_WDT will_MD be_VB fixed_VBN soon_RB ?_. \_: ''_'' \n_NNP ''_'' }_:
``_`` \_`` ''_'' what_WP model_NN iPhone_NNP ?_.
I_PRP 'm_VBP using_VBG a_DT 5S.\_CD ''_'' \n_NNP ''_'' }_:
``_`` \_`` ''_'' CTYankee_NNP said_VBD :_: \u00e2\u0086\u0091I_JJ ca_NN n't_RB set_VBN up_RP either_DT of_IN our_PRP$ Discover_NNP cards_NNS ._.
I_PRP can_MD get_VB through_IN the_DT process_NN up_RP to_TO the_DT last_JJ step_NN ''_'' }_:
``_`` \_`` ''_'' I_PRP was_VBD having_VBG the_DT same_JJ issue_NN with_IN my_PRP$ iPhone_NNP 5s_CD and_CC Apple_NNP Watch_NNP ''_'' }_:
``_`` \_`` ''_'' Tom2D2_NNP said_VBD :_: \u00e2\u0086\u0091I_JJ was_VBD having_VBG the_DT same_JJ issue_NN with_IN my_PRP$ iPhone_NNP 5s_CD and_CC Apple_NNP Watch_NNP ''_'' }_:
