``_`` \_`` ''_'' Every_NNP time_NN i_PRP update_VBP my_PRP$ phone_NN to_TO the_DT latest_JJS version_NN of_IN iOS_NNP ''_'' }_:
``_`` \_`` ''_'' MTXR_NNP said_VBD :_: \u00e2\u0086\u0091_-NONE- ..._: I_PRP 'm_VBP getting_VBG sick_NN of_IN adding_VBG my_PRP$ cards_NNS in_IN every_DT single_JJ time_NN i_PRP update_VBP ..._: .Click_JJ to_TO expand_VB ..._: Getting_NNP 'sick_NNP '_POS once_NN a_DT year_NN is_VBZ not_RB the_DT worst_JJS thing_NN to_TO happen_VB in_IN life_NN ._.
Also_RB did_VBD you_PRP upgrade_VB your_PRP$ iPhone_NNP ?_. \_: ''_'' \n_NNP ''_'' }_:
``_`` \_`` ''_'' MTXR_NNP said_VBD :_: \u00e2\u0086\u0091Every_JJ time_NN i_PRP update_VBP my_PRP$ phone_NN to_TO the_DT latest_JJS version_NN of_IN iOS_NNP ''_'' }_:
``_`` \_`` ''_'' MTXR_NNP said_VBD :_: \u00e2\u0086\u0091Every_JJ time_NN i_PRP update_VBP my_PRP$ phone_NN to_TO the_DT latest_JJS version_NN of_IN iOS_NNP ''_'' }_:
