,x,
1," Welcome! Welcome to r/Apple, the community for Apple news, rumors, and discussions. If you have a tech question, please check out AppleHelp! New Product Release Dates Notice an incorrect or updated release date? Message the moderators! Product Date Apple TV October 26! iPad Pro November Apple Pencil November Smart Keyboard November New to Mac? Are you a new Mac owner? Check out this user-maintained wiki for helpful tips! Not sure what to buy? Check out this user-maintained wiki, ask in the dedicated sub /r/AppleWhatShouldIBuy or ask in the Wednesday What Should I Buy Megathread! Details are below. Rules No memes or direct image/video posts. No NSFW content. No threads designed as rants (please message the mods if you have a specific concern). No editorialized link titles (use the original article’s title when possible). No rude, offensive, or hateful comments. No posts that aren’t directly related to Apple or the Apple eco-system. No technical support questions (see the event schedule for more information). We may approve your post if it is a time-senstive emergency or widespread issue. No spam or self-promotion (see the event schedule for more information). No posts or comments related to piracy. No selling, trading, or asking to purchase devices. No posts about bugs in beta software. These belong in /r/iOSbeta, /r/ios9, /r/OSXBeta /r/osxelcapitan, or /r/watchOSBeta. Events Event submissions must be a comment in the weekly stickied megathread, or will be removed. Event Name 9am ET Tech Support Tuesday Tuesday What Should I Buy Wednesday Wednesday Tech Support Thursday Thursday Self-Promotion Saturday Saturday Weekly Megathread Archives IRC Chatroom Join via web chat IRC Server: irc.snoonet.org Channel: #apple Apple Subreddits Apple Help Apple Music Swift Programming Language SimpleiOS Mac Subreddits OSX Mac MacApps MacGaming Hackintosh Apple II BootCamp MacSetups Retina AppleSwap VintageApple OS X El Capitan iOS Subreddits iPhone iPad Apple Watch AppleTV iPod iOSGaming iPadMusic AppHookUp AlienBlue iOS7 iOS8 iOS9 Jailbreak iOSThemes iPhone Wallpapers iPad Wallpapers Apple Watch Wallpapers Beta Subreddits iOS OS X Apple Watch Tech Subreddits Technology Laptops Programming Content Philosophy Content which benefits the community (news, rumors, and discussions) is valued over content which benefits only the individual (technical questions, help buying/selling, rants, etc.). This fundamental difference in audience is why we support two communities, r/Apple and r/AppleHelp. If you'd like to view their content together, click here. ",12 months ago
2,This is an archived post. You won't be able to vote or comment. ,12 months ago
3,I just used Apple Pay for the first time today and I found out that I was charged twice for the same purchases. Is anybody else having the same problem? ,12 months ago
4,bank of america says its their fault. Refunds coming http://www.cultofmac.com/300574/apple-pay-customers-getting-charged-twice-purchases/ ,12 months ago
5,To the top with you ! ,12 months ago
6,I made a post earlier. Got a double charge at whole foods with Bank of America debit. Other people said it did not double charge them so not sure which side is to blame. One thing I found strange is that it asked for a pin on the terminal after I confirmed it on my phone. ,12 months ago
7,"all applepay does is convert your card into a thing that is stored on your phone. it works exactly the same as your card does, except you don't swipe. the only way you will not be bothered for a pin or a signature is if you are using a credit card and your total is under the merchants signature requirement limit. I think that is all kind of dumb and maybe they are working on it but that's the way it works for now. I'm a cashier at whole foods. ",12 months ago
8,Thanks. So if that is normal then the charge must have been duplicated by either Whole Foods or the bank itself. I am thinking it is a problem with the bank since on my statement it has the same transaction number for both charges. I just spent 90 minutes badgering a chat support rep at Bank of America but they have no idea what is going on. I ended up having him escalate it and they are supposed to get back to me tomorrow. My guess is that there is some error in the way the bank is processing the token apple is generating and they are charging the card and apple's unique number they generate at the same time. Luckily I have enough money to cover this but spending $90 at a store and being charged $180 is leaving a sour taste as far as first impressions of apple pay go. Hopefully the bank gets this sorted out. FYI: http://money.cnn.com/video/technology/2014/10/21/apple-pay-charges.cnnmoney/ ,12 months ago
9,"That's not true, I used a Chase Debit card and was not asked for my pin, I put my phone next to the NFC reader, it activated, I gave it my thumb print and I drove away with my Egg McMuffin and coffee. No pin involved. ",12 months ago
10,"McDonald's forces debit cards as credit. that is all that is happening that is having you not enter your pin. supermarkets will allow you to use your pin so the card runs as debit and you can get cash back. edit: I do see how I was wrong though.I said ""the only way"" forgetting about merchants like starbucks and McDonald's that do not process debit and force all cards as credit. ",12 months ago
11,"> One thing I found strange is that it asked for a pin on the terminal after I confirmed it on my phone I'm an android user who has been using Google Wallet for touchless transactions on my phone for quite a while. FYI, there are certain places like Whole Foods and Walgreens which will required you to enter a pin, opt in or out of a donation and confirm your total, even for small amounts. It pretty much defeats the purpose of a touch less transaction IMO. There are also places like CVS in which the transaction is truly touchless. I suggest complaining to both Apple and the corporate hq of the merchants who are requiring numerous presses on the keypad to complete a touchless transaction. ",12 months ago
12,I was double-charged using a Bank of America Visa debit card at Walgreens yesterday. EDIT: Bank of America has fixed the double-charge. No calls to customer service necessary. Pending credit is now showing on my account. ,12 months ago
13,"Happened to me as well. I assumed it was because the PIN screen came up, and I cancelled. This seems like a pervasive issue with BofA though. ",12 months ago
14,"Seems like it's a bank issue, given that a lot of the posts confirming this happened to them are all Bank of America. We should gather some data on what people have tried (Bank/Credit or Debt) and see if we notice any trends. Can anyone report in on if they have used an American Express card? Were you double charged? For a Chase credit card, I was only charged once. ",12 months ago
15,[deleted] ,12 months ago
16,What bank? ,12 months ago
17,I'm surprised a double or even triple charge doesn't trigger an alert by the credit card company. Is everyone's double-charges via use of a debit/bank card? ,12 months ago
18,Banks won't care. It's Apple's problem. Why should they investigate when normal transactions don't double up. ,12 months ago
19,Because charging you twice for one transaction is illegal? ,12 months ago
20,They actually do care. BofA is taking full responsibility for the issue. ,12 months ago
21,"I also got charged twice. No biggie, it was only $1.97but it's still annoying. I probably won't use it until that's fixed. ",12 months ago
22,"Lucky you, mine was $90 twice. It isn't the worst thing but I can imagine if someone needed the money and it wasn't available because of a banking error they would be pretty pissed. I guess I learned not to use my debit card for now. That was stupid on my part. ",12 months ago
23,Did you contact your bank or card issuer about being double charged? What did they say? ,12 months ago
24,"I was up till 6am and escalated to a supervisor in the Bank of America chat. They basically didn't want to help and seemed to have no clue what was happening. I basically got told to wait for it to post and file a claim, even though the same transaction number was used twice. I basically said I am going to bed and if the charge is not reversed by the time I wake up that I would be filing a complaint with the federal reserve and emailing the office of the bank president. When I woke up I saw a credit for the transaction. Although it seems the bank realised the mistake was on their end today so I may have gotten one anyway who knows. ",12 months ago
25,Is it a pending transaction or has it hard posted to your account? ,12 months ago
26,Wouldn't this be resolved if you used the physical card instead of through Apple pay? At least until they fix it ,12 months ago
27,American Express card -- no problem. Sounds like a BofA problem despite their claims its an Apple problem... ,12 months ago
28,Have been using Amex and Wells with no issues as well. If anything its been working really great. ,12 months ago
29,I used my Amex credit card and got charged twice :( ,12 months ago
30,"I've been using my Amex via ApplePay for about two weeks and have not had a single issue. I like how Amex immediately displays all charges, including plastic, on my iPhone. What store did you get charged twice at? Perps it was a retailer issue. I've been using a wide variety of retailers. In fact, it is surprising how many retailers are able to accept ApplePay -- though a lot don't realize they have the capability. So many retailers do accept it that I'm already debating the need to carry plastic. I've started advising retailers who insist on plastic that the days of my being their customer are limited. I do avoid retailers that are hostile to Apple Pay (CVS, RiteAid, Walmart, Target). There are many alternatives. Context: I was one of the 'lucky' people [NOT] whose data was exposed by both Target and Home Depot. Target's plans to require more data (drivers license, social security, etc.) for the 'privilege' of patronizing them when they've shown they can not securely maintain what they have is a non-starter. Kind of like an abusive spouse 'demanding' one more chance... I am proactively reducing the personal data I share with all retailers. ",12 months ago
31,"It was vending machine, I've used the same Amex via ApplePay many times before. It did charge me $5.00 instead of $2.50 this time. I'm hesitant to use ApplePay again. ",12 months ago
32,I took an Uber the other day with Apple Pay and it authorized $1.20 then at the end of my ride it authorized an other $5... the same ride usually is only just the $5. It was my first try though. ,12 months ago
33,this needs more attention. same problem using Bank of America debit. this is a big fuck up ,12 months ago
34,"I just chatted with Bank of America. it took some time, but I was transferred to claims and they seem to say my account will be refunded tomorrow ",12 months ago
35,"Haven't seen any double charges, but I did crash two registers at Wal-Greens recently. Doing the NFC transaction froze both the terminal and computer. Ton of fun. ",12 months ago
36,Only single charges on my Capital One Master Card and Chase Visa. ,12 months ago
37,"Have used it twice, once at subway, and another market that supports NFC but wasn't an apple pay partner. I just checked, I wasn't charged twice. Using a Chase Visa ",12 months ago
38,"Similar, I used my Chase Visa debit card twice in two days at a vending machine at work. No double charges. I'm wondering if it's a BoA issue. Given that Apple Pay purchases don't go to Apple (from what I understand at least), I would be semi-surprised if the issue was on Apple's end. If I were a betting man, I'd wager the problem lies between the merchant and the bank. I can't even think of a way Apple would even have the ability to double charge a card. ",12 months ago
39,"Used Apple Pay at Whole Foods on Monday and was charged twice. However, the charges stayed in ""Processing"" status for a day and, while both did clear, I also have a corresponding ""Recon"" credit for the original transaction amount. ",12 months ago
40,"ditto. i was double charge at Walgreens using BOFA debit card. on the day of 8.1 launch. The statement shows same transaction number. Called bofa and they reverse the charge right away. also a note, it seems that if you use a debit card with apple pay. The amount for the transaction won't show in PassBook, unless you use a credit card. is that true? similar to some posted how you would need to enter PIN for debit (obviously) and not for credit. ",12 months ago
41,"This is happens when apple releases Apple Pay to a country with immature NFC banking infrastructure, yet leaves other, more capable countries in a lurch (Europe, Canada, etc) ",12 months ago
42,"It seems to be limited to just BofA, so really it's their issue, not one of infrastructure. ",12 months ago
43,"Uh oh. Here comes Apple PayGate... ;) I still haven't had a chance to use it yet. I have Chase and Capital One, so hopefully there are no issues. ",12 months ago
44,"I've gotten to use it twice at my local gas station. I love how quick it is, as my wallet is kind of a pain to fish out past my knife. My phone on the other hand, getting its own pocket, is super quick. I'm excited for more places adopting NFC. ",12 months ago
